ID,Email,First name,Last name,Language,Signup Date,Last login,Gets email,Balance,Has PA,Has PM,VIP,Lifetime spend,Last Task Created,Account Type,Prosaldo,Company Name,Country, City, Zipcode, Street, Tax ID
3dbFFB7cGanDBjvff,michael.kamleitner@socialisten.at,Michael,Kamleitner,undefined,Thu Dec 11 2014 16:52:27 GMT+0100 (CET),,Yes,0,No,No, ,0,,private,Nein,
3kdu3hw24ArK3SCqz,info@plastikkarten.at,Gerhard,Völkl,de,Fri Mar 27 2015 10:32:11 GMT+0100 (CET),Tue May 12 2015 12:33:07 GMT+0200 (CEST),Yes,7.00,Yes,No, ,3,Fri Apr 03 2015 17:16:05 GMT+0200 (CEST),corporate,Nein,Creative Card GmbH,Österreich,,7033,Lichtenwörthergasse 8,ATU63761744,
28w4Z6TnWnBYYh4hi,doristhonig@t-online.de,Doris,Thonig,null,Tue Jul 21 2015 14:44:19 GMT+0200 (CEST),Fri Jul 31 2015 07:34:24 GMT+0200 (CEST),Yes,2.00,No,No, ,6,Tue Jul 28 2015 17:40:29 GMT+0200 (CEST),private,Nein,
3vR96psNxJ2TxhLLA,nlatestuser9@gmail.com,Max,Mustermann,de,Tue Jun 23 2015 15:10:25 GMT+0200 (CEST),Tue Jun 23 2015 15:23:15 GMT+0200 (CEST),Yes,0.00,No,No, ,0,Tue Jun 23 2015 15:14:17 GMT+0200 (CEST),private,Nein,
45GbFif6yyvf9tC3i,dummy@dummy.com,John,Smitz,en,Sat Jul 04 2015 00:28:44 GMT+0200 (CEST),Sun Jul 05 2015 12:28:03 GMT+0200 (CEST),Yes,0,No,No, ,0,,corporate,Nein,
4dCMZAScwppPDByDQ,guesmi.mohamedmain@gmail.com,Mohamed ,Guesmi,fr,Thu May 14 2015 00:59:47 GMT+0200 (CEST),Thu May 14 2015 01:25:22 GMT+0200 (CEST),Yes,0,No,No, ,0,,private,Nein,
5ayo5QuNJ9RtbTRX6,felixbethmann@gmx.de,Felix,Bethmann,de,Wed Apr 22 2015 19:59:24 GMT+0200 (CEST),Tue May 05 2015 23:42:21 GMT+0200 (CEST),Yes,0,No,No, ,0,,corporate,Nein,Bethmann,Deutschland,Wölfersheim,61200,Kirchgasse 12,DE284010811,
5ucYCN8cHZgQf9Nc4,teeschulze@gmail.com,Thomas,undefined,de,Wed Mar 18 2015 18:48:08 GMT+0100 (CET),Thu Jun 18 2015 21:29:13 GMT+0200 (CEST),Yes,0,No,No, ,0,,private,Nein,
66hZ48JBTHNMbqYrK,info@elan-mobilier.de,Halil,Eskitürk,undefined,Fri Mar 27 2015 07:53:46 GMT+0100 (CET),Fri Mar 27 2015 07:53:47 GMT+0100 (CET),Yes,0,No,No, ,0,,corporate,Nein,
4y3sQfFJXCHcxgAcK,j.hager@taskwunder.com,Jakob,Hager,de,Thu Dec 04 2014 18:14:49 GMT+0100 (CET),Fri Jul 31 2015 09:12:20 GMT+0200 (CEST),Yes,-1029.38,Yes,Yes,vip,1276.8,Tue Jul 28 2015 21:26:39 GMT+0200 (CEST),corporate,Nein,
6J6rdeofcqsuNnJvj,o.ross@ross-feinmechanik.de,Oliver,Ross,de,Thu Jul 16 2015 15:35:01 GMT+0200 (CEST),Thu Jul 30 2015 23:40:05 GMT+0200 (CEST),Yes,17.50,Yes,No, ,2.5,Mon Jul 20 2015 14:42:48 GMT+0200 (CEST),corporate,Nein,Ross Feinmechanik GmbH&Co.KG,Deutschland,Lautertal,64686,Am Pflasterweg 22,DE251213773,
6AnTBfcT7roRpwrWn,taskwunder@bickers.de,Andreas,Bickers,de,Thu Jul 09 2015 14:00:29 GMT+0200 (CEST),Fri Jul 10 2015 11:52:51 GMT+0200 (CEST),Yes,0,No,No, ,0,,corporate,Nein,
6SYxyDxXZKYuZXkis,franzfranzfranz@gmx.at,Franz,Zehetner,de,Wed Apr 29 2015 15:22:12 GMT+0200 (CEST),Fri May 01 2015 15:02:30 GMT+0200 (CEST),Yes,0,No,No, ,0,,private,Nein,
73Nn4Pps8HszF37B6,phillip@your-virtual-ninja.com,Phillip,Dyhr,undefined,Fri Jan 30 2015 08:41:47 GMT+0100 (CET),,Yes,0,No,No, ,0,,private,Nein,
8Xjrt4g3uhGdbPGLn,nw@nexplan.de,Nicolas ,von Wilcke,de,Tue Jan 20 2015 15:34:43 GMT+0100 (CET),Thu May 07 2015 14:03:28 GMT+0200 (CEST),Yes,-126.00,Yes,Yes,vip,535,Thu Jul 16 2015 06:59:05 GMT+0200 (CEST),corporate,Nein,Nexplan Gesellschaft für nachhaltige Entwicklung und Technologie GmbH,Deutschland,Fränkisch-Crumbach,64407,Allee 4,DE231414446,
9fbkfi7Nxr2eSSQNS,alexander.duggleby@gmail.com,Alex,Duggleby (Privat),en,Mon Jan 12 2015 11:00:01 GMT+0100 (CET),Wed Apr 15 2015 10:04:01 GMT+0200 (CEST),Yes,14.67,Yes,No,vip,18.66,Wed Apr 08 2015 19:38:15 GMT+0200 (CEST),private,Nein,
BTz8ERF5uGT2ie9EE,stephenreich@att.net,Stephen,Reich,en,Wed Jul 15 2015 17:50:05 GMT+0200 (CEST),Tue Jul 28 2015 23:16:24 GMT+0200 (CEST),Yes,0,No,No, ,0,,private,Nein,
DJXrZkQxJzg8Ka9AT,mb@allesmarketing.de,Matthias,Brandmüller,de,Tue Feb 17 2015 19:32:16 GMT+0100 (CET),Tue Jun 16 2015 18:50:27 GMT+0200 (CEST),Yes,9.25,No,No, ,23.75,Wed May 20 2015 12:08:47 GMT+0200 (CEST),corporate,Nein,
ECsgbs3x5RZg4Z2sN,florianbaessler@gmx.de,Florian,Bäßler,null,Wed Jul 22 2015 19:35:32 GMT+0200 (CEST),Sun Jul 26 2015 17:04:17 GMT+0200 (CEST),Yes,0.00,No,No, ,0,Wed Jul 22 2015 19:41:44 GMT+0200 (CEST),private,Nein,
FKwvDmQ42vKZrjrsx,johannesmarek23@gmail.com,Johannes,Marek,de,Fri Apr 10 2015 16:42:48 GMT+0200 (CEST),Fri Apr 10 2015 16:49:36 GMT+0200 (CEST),Yes,0,No,No, ,0,,private,Nein,
HJvEuELxn64hHwsuA,r.gratzer@g-crystals.com,Roland,Gratzer,undefined,Mon Mar 16 2015 16:06:06 GMT+0100 (CET),Mon Mar 16 2015 18:23:50 GMT+0100 (CET),Yes,-2.00,Yes,No,vip,2,Mon Mar 16 2015 16:15:20 GMT+0100 (CET),private,Nein,
JDs2j6LvqocLKSAGE,jmarkard@ethz.ch,Jochen	Markard,undefined,undefined,Thu Dec 11 2014 17:13:29 GMT+0100 (CET),,Yes,0,No,No, ,0,,private,Nein,
KCHJfB6vu55WXrpP2,feuchtinger@hotmail.com,Stefan,Feuchtinger,undefined,Thu Dec 11 2014 17:56:49 GMT+0100 (CET),,Yes,0,No,No, ,0,,private,Nein,
LB8CJP9g7e8tdB7zR,erich@stocksale.at,Erich,Gromek,de,Fri Apr 03 2015 02:19:30 GMT+0200 (CEST),Tue Jun 30 2015 01:04:11 GMT+0200 (CEST),Yes,0,No,No, ,0,,corporate,Nein,STOCKSALE Kruse & Partner OG,Österreich,Wien,1050,Blechturmgasse 13/5/8,null,
MMNPksA58CPo6JFqf,ts@miceandmen.at,Tarek,Sharif,de,Thu Dec 11 2014 17:18:36 GMT+0100 (CET),Tue Mar 31 2015 08:28:14 GMT+0200 (CEST),Yes,0.00,Yes,No, ,5.5,Wed Mar 11 2015 11:26:52 GMT+0100 (CET),private,Nein,
Ng3mQF5gQe4EaiJoa,s.weigelhofer@transkriptwunder.com,Melanie,Bartosik,de,Wed Jul 29 2015 21:57:20 GMT+0200 (CEST),Fri Jul 31 2015 11:12:00 GMT+0200 (CEST),No,922.60,No,No,vip,180.6,Fri Jul 31 2015 10:24:51 GMT+0200 (CEST),private,
Ph2H6nmrD5PmapHYz,nlatestusere8@gmail.com,Max,Mustermann,de,Tue Jun 23 2015 15:23:45 GMT+0200 (CEST),Mon Jul 13 2015 15:30:35 GMT+0200 (CEST),Yes,0.00,No,No, ,0,,private,Nein,
QR7mDepJZ585pX6kT,buerger@yair.at,Kathrin	Bürger,undefined,undefined,Thu Dec 11 2014 16:56:50 GMT+0100 (CET),,Yes,0,No,No, ,0,,private,Nein,
RgDxWM2ynHbSiaZ34,samirmaziz@gmail.com,Samir,Aziz,en,Fri Jun 12 2015 02:19:15 GMT+0200 (CEST),Sat Jun 13 2015 00:24:36 GMT+0200 (CEST),Yes,0,No,No, ,0,,private,Nein,
TQJW3jTRG6zzhqj6W,dl@xware42.com,David,Lais,undefined,Thu Dec 11 2014 17:58:13 GMT+0100 (CET),,Yes,0,No,No, ,0,,private,Nein,
WDtwuTSYBc7yMXADS,jan@koch.me,Jan,Koch,de,Wed Jul 01 2015 07:21:50 GMT+0200 (CEST),Wed Jul 01 2015 07:21:51 GMT+0200 (CEST),Yes,0,No,No, ,0,,corporate,Nein,
XgquRYYPCHyJtccrJ,m.okunnuga@gmail.com,Martin,Okunnuga,de,Wed Dec 17 2014 18:07:59 GMT+0100 (CET),Sun Jul 26 2015 13:07:59 GMT+0200 (CEST),Yes,-64.94,Yes,No,vip,64.94,Sun Jul 26 2015 20:47:15 GMT+0200 (CEST),corporate,Nein,Martin Okunnuga Marketing und Schulungen,Deutschland,Lüneburg,21335,Munstermannskamp 1,DE278701986,
ZCucNyjRcZZY6piGs,info@judithzingerle.at,Judith,Zingerle,undefined,Wed Feb 11 2015 18:06:07 GMT+0100 (CET),,Yes,0,Yes,Yes, ,9,Fri May 08 2015 20:16:57 GMT+0200 (CEST),private,Nein,
aNiQEyEyTnErruCoh,mba@vnr.de,Melanie ,Bartosik ,de,Wed Jun 17 2015 16:30:17 GMT+0200 (CEST),Mon Jul 20 2015 09:50:19 GMT+0200 (CEST),Yes,0,No,No,vip,0,,corporate,Nein,
bBmyxhpLqQcQH3yb6,o.schmuck@big-hessen.de,Oliver,Schmuck,de,Mon Jan 19 2015 19:30:47 GMT+0100 (CET),Mon Apr 27 2015 16:43:16 GMT+0200 (CEST),Yes,-4,Yes,No,vip,26,Mon Mar 23 2015 14:26:20 GMT+0100 (CET),private,Nein,
c3CRL7wB3N9hZN9Hn,info@christianhueske.de,Christian,Hueske,de,Mon Jun 22 2015 16:30:35 GMT+0200 (CEST),Mon Jun 22 2015 17:06:50 GMT+0200 (CEST),Yes,0,No,No, ,0,,corporate,Nein,
dbtkbxFE9S6unXeuc,mateo@honestly.de,Mateo,Freudenthal,de,Mon Apr 27 2015 10:08:33 GMT+0200 (CEST),Thu Jul 09 2015 11:12:39 GMT+0200 (CEST),Yes,-37.00,Yes,No,vip,103,Tue Jun 16 2015 02:31:20 GMT+0200 (CEST),corporate,Nein,Honestly MT GmbH,Deutschland,Köln,50670,Hansaring 68-70,DE284320814 ,
7cgh84s3LmcCstJLq,amarind@virtual-assist.com,Amarind,Tan,undefined,Thu Dec 04 2014 17:39:31 GMT+0100 (CET),Thu Mar 19 2015 20:02:50 GMT+0100 (CET),Yes,0,No,No, ,0,,private,Nein,
9CkFMqBWMQttiLKKG,simpleethrifty@gmail.com,Heidi,Phippen,en,Thu Apr 30 2015 21:44:15 GMT+0200 (CEST),Thu Apr 30 2015 21:44:18 GMT+0200 (CEST),Yes,0,No,No, ,0,,corporate,Nein,
6gftjt3f9foBrhW3z,markwalker38@gmail.com,Mark,Walker,en,Tue Jun 30 2015 23:28:25 GMT+0200 (CEST),Tue Jul 28 2015 14:19:30 GMT+0200 (CEST),Yes,6.00,Yes,No, ,4,Wed Jul 01 2015 11:54:30 GMT+0200 (CEST),private,Nein,
8TKPygHeP5CL5wWih,robert.obermaier@gmx.at,Robert,Obermaier,de,Sat Apr 04 2015 16:47:38 GMT+0200 (CEST),Tue Jul 28 2015 07:20:43 GMT+0200 (CEST),Yes,0,No,No, ,0,,private,Nein,
9MHQpmTvSDSTDxzsZ,dan@cloudkelly.com,Dan,undefined,undefined,Mon Mar 09 2015 15:51:41 GMT+0100 (CET),Mon Mar 09 2015 15:51:41 GMT+0100 (CET),Yes,0.00,No,No, ,0,,private,Nein,
B4t49T7awxmYcCTxS,jwcf@icloud.com,Jürgen,Winkler,de,Thu Jul 16 2015 20:12:20 GMT+0200 (CEST),Wed Jul 29 2015 22:21:24 GMT+0200 (CEST),Yes,2.00,No,No, ,8,Thu Jul 16 2015 20:23:25 GMT+0200 (CEST),corporate,Nein,
DDhGuHStTm6Yvqu39,info@i-systeam.de,Mike,Mattheus,de,Tue Apr 07 2015 16:36:04 GMT+0200 (CEST),Mon Apr 20 2015 17:30:49 GMT+0200 (CEST),Yes,0,No,No, ,0,,corporate,Nein,
EBxfncdGzC8SkAwwu,office@whataventure.com,Alex,Duggleby (WhatAVenture),en,Wed Feb 04 2015 13:34:49 GMT+0100 (CET),Fri Jul 31 2015 10:10:25 GMT+0200 (CEST),Yes,-19.00,Yes,No,vip,20.5,Fri Jul 31 2015 09:04:29 GMT+0200 (CEST),corporate,Nein,WhatAVenture GmbH,Austria,Vienna,1090,Marktgasse 8-10/1,ATU68244866,
FAySGyiFiBhdwRKXH,imace2000@gmail.com,Iain,Mace,en,Thu May 07 2015 01:19:48 GMT+0200 (CEST),Thu May 07 2015 01:21:02 GMT+0200 (CEST),Yes,0,No,No, ,0,,private,Nein,
GozRxBwRXZcBhFqCx,nlatestuser5@gmail.com,Matze,Himmerl,de,Tue Jun 16 2015 18:56:36 GMT+0200 (CEST),Wed Jun 17 2015 11:39:56 GMT+0200 (CEST),Yes,0.00,No,No, ,0,,private,Nein,
AGSEZJL96SrYbkhDf,mwm@email.de,Martin,Wolters,de,Sun Jul 26 2015 21:43:01 GMT+0200 (CEST),Fri Jul 31 2015 00:06:18 GMT+0200 (CEST),Yes,0.00,No,No, ,0,Thu Jul 30 2015 16:58:04 GMT+0200 (CEST),private,
CPAd9zZAXDQL3qtbX,peter.ludwigshafen@arcor.de,Peter,Braun,de,Tue May 12 2015 23:34:27 GMT+0200 (CEST),Tue May 12 2015 23:46:54 GMT+0200 (CEST),Yes,0,No,No, ,0,,corporate,Nein,Peter Braun,Deutschland,Ludwigshafen,67059,Frankenthaler Str. 80,null,
DiynqX8KZMYd5TNJN,paolo.sommariva@fl3xx.com,Paolo,Sommariva,en,Tue Apr 14 2015 14:56:23 GMT+0200 (CEST),Wed Jul 22 2015 10:56:29 GMT+0200 (CEST),Yes,-4.00,No,No,vip,4,Fri May 08 2015 14:26:58 GMT+0200 (CEST),corporate,Nein,FL3XX GmbH,Austria,Vienna,1050,Siebenbrunnengasse 17,ATU65697249,
EkPJbuf7DmzE8H53R,schuster_antonia@web.de,Antonia,Schuster,de,Thu May 07 2015 13:49:00 GMT+0200 (CEST),Fri May 29 2015 18:57:45 GMT+0200 (CEST),Yes,0,No,No, ,0,,private,Nein,
GEBy5GMBTSNQDMe9s,testkunde@test.com,Test,Kunde,en,Wed Jul 01 2015 19:44:29 GMT+0200 (CEST),Wed Jul 01 2015 19:44:32 GMT+0200 (CEST),Yes,0,No,No, ,0,,private,Nein,
HiyoXY7jRziN9nFE8,einkauf@remasun.eu,Reichow,undefined,undefined,Mon Mar 16 2015 17:46:56 GMT+0100 (CET),Mon Mar 16 2015 19:20:14 GMT+0100 (CET),Yes,0,No,No, ,0,,private,Nein,
8Hq97WHur9kpov24c,christoph@richter.md,Christoph	Richter,undefined,undefined,Thu Dec 11 2014 17:30:55 GMT+0100 (CET),,Yes,-26.40,Yes,No,vip,26.4,Mon Mar 23 2015 17:21:06 GMT+0100 (CET),private,Nein,
9FktK7Z697vjk6nr2,kostenlos.geld@web.de,Christoph,Börth,de,Sat Jun 13 2015 01:52:48 GMT+0200 (CEST),Sat Jun 13 2015 01:52:49 GMT+0200 (CEST),Yes,0,No,No, ,0,,private,Nein,
AXuxyEbAXyhADLmc6,dietz@aitsolutions.at,Alexander,Dietz,de,Tue Jul 21 2015 12:35:11 GMT+0200 (CEST),Tue Jul 21 2015 12:36:10 GMT+0200 (CEST),Yes,0,No,No, ,0,,corporate,Nein,Alexander Dietz,Österreich,Wien,1230,Lemböckgasse,null,
CQZeZYrwxFnNH2PPy,mail@tortenland.com,Ariel,Aronbaew,de,Tue Apr 21 2015 12:52:10 GMT+0200 (CEST),Tue Apr 21 2015 14:31:12 GMT+0200 (CEST),Yes,0.00,No,No, ,0,,corporate,Nein,
E9qRuqje6hQ2systH,vidar@blacktar.com,Vidar,Andersen,undefined,Tue Feb 03 2015 19:33:34 GMT+0100 (CET),,Yes,0,No,No, ,0,,private,Nein,
EtGQu8wWrtTZBwKpX,heinz.wanzenboeck@tuwien.ac.at,Heinz,Wanzenboeck,en,Fri Jun 19 2015 13:28:49 GMT+0200 (CEST),Fri Jun 19 2015 13:46:53 GMT+0200 (CEST),Yes,0,No,No, ,0,,corporate,Nein,
GMLDZK4CrZrr7A9FL,jj@vnr.de,jj,jj@vnr.de,de,Wed Jun 17 2015 11:22:57 GMT+0200 (CEST),Wed Jun 17 2015 11:22:57 GMT+0200 (CEST),Yes,0,No,No,vip,0,,corporate,Nein,
HoYDTneM4hXCNKiKg,brenner.michael@me.com,Michael,Brenner,undefined,Thu Jan 22 2015 16:12:20 GMT+0100 (CET),,Yes,-30.03,Yes,No,vip,30.029999999999998,Tue Mar 24 2015 17:43:04 GMT+0100 (CET),private,Nein,
emY6EKANwtH7vvdtb,oliver.grimm@leandirekt.de,Oliver,Grimm,de,Tue Mar 31 2015 12:49:27 GMT+0200 (CEST),Mon Apr 20 2015 11:45:42 GMT+0200 (CEST),Yes,0.00,Yes,No, ,2,Wed Apr 01 2015 11:14:18 GMT+0200 (CEST),corporate,Nein,Oliver Grimm Lean Trainining und Beratung,Deutschland,Landshut,84028,Johann-Weiß-Weg 9,DE296900958,
gNCXpZiQqq46Cyqx5,andy365@yahoo.de,Andy,Test,de,Tue Apr 07 2015 15:47:16 GMT+0200 (CEST),Wed Apr 08 2015 10:46:45 GMT+0200 (CEST),Yes,0,No,No, ,0,,private,Nein,
hPZBB8Y6wWnd7dn4g,demo@taskwunder.com,Demo,User,undefined,Wed Mar 11 2015 20:21:34 GMT+0100 (CET),,Yes,0,No,No, ,0,,private,Nein,
iamPY4A7tP7RpXyLY,info@jafo-gmbh.de,Benny,Barth,null,Thu Jul 23 2015 10:30:48 GMT+0200 (CEST),Thu Jul 23 2015 10:30:49 GMT+0200 (CEST),Yes,0,No,No, ,0,,corporate,Nein,
jpWTjyWzb2qsYyq87,nils@lootchest.de,Nils,Bartels,de,Mon Apr 27 2015 22:24:38 GMT+0200 (CEST),Tue Jul 28 2015 14:04:01 GMT+0200 (CEST),Yes,2.00,No,No, ,10,Thu May 28 2015 15:54:36 GMT+0200 (CEST),corporate,Nein,lootchest UG (haftungsbeschränkt,Deutschland,Goch,47574,Hervorster Str. 147,DE294876471,
7HQELdKejN9qipYzX,kontakt@owmediasolutions.de,Oliver,Wermeling,de,Thu Feb 26 2015 17:48:07 GMT+0100 (CET),Mon Apr 13 2015 11:30:12 GMT+0200 (CEST),Yes,5.00,Yes,No, ,5,Sat Apr 11 2015 02:19:05 GMT+0200 (CEST),private,Nein,
9BNGaedoKFZc4Pimt,mail@mike-kern.de,Mike,Kern,de,Thu Jul 23 2015 15:16:32 GMT+0200 (CEST),Fri Jul 31 2015 09:20:45 GMT+0200 (CEST),Yes,0.00,No,No, ,2,Thu Jul 23 2015 15:21:43 GMT+0200 (CEST),private,Nein,
kXBdz7h7J5KHpEM4W,julian@breitenecker.com,Julian,Breitenecker,undefined,Mon Dec 08 2014 15:21:01 GMT+0100 (CET),Sat Mar 07 2015 22:48:03 GMT+0100 (CET),Yes,0,No,No, ,0,,private,Nein,
mPwMxGFK7k9vRzDxp,andreas.daubek@gmx.at,Andreas,Daubek,de,Fri Apr 03 2015 01:37:12 GMT+0200 (CEST),Fri Apr 03 2015 01:38:07 GMT+0200 (CEST),Yes,0,No,No, ,0,,private,Nein,
nz5ER334A4Zzbp8Qe,klaus.luettel@t-online.de,Klaus,Lüttel,undefined,Fri Feb 20 2015 13:12:58 GMT+0100 (CET),,Yes,-14.00,Yes,No,vip,14,Mon Mar 16 2015 21:26:19 GMT+0100 (CET),private,Nein,
9xE3cHfG2AdjE3T89,tillmann.lang@gmail.com,Tillmann,Lang,undefined,Thu Dec 11 2014 08:17:43 GMT+0100 (CET),,Yes,-11.50,Yes,No,vip,9.5,Wed May 27 2015 11:38:41 GMT+0200 (CEST),private,Nein,
C9ZyiQMumNHrP6MwB,jw2013@online.de,Wolf,Schmalz,de,Sun Jul 05 2015 08:20:51 GMT+0200 (CEST),Tue Jul 21 2015 16:47:36 GMT+0200 (CEST),Yes,0.00,No,No, ,0,Sun Jul 05 2015 09:23:52 GMT+0200 (CEST),corporate,Nein,
DiLp66vJG2az4RxpS,info@gruenundgesund.de,Andreas,Paffrath,de,Thu Mar 26 2015 16:37:51 GMT+0100 (CET),Sun Mar 29 2015 14:44:20 GMT+0200 (CEST),Yes,0,No,No, ,0,,private,Nein,
oRBh2HJwjp7Qv6PwB,peter.vamosy@tele2.at,peter,vamosy,de,Thu Apr 02 2015 21:15:24 GMT+0200 (CEST),Thu Apr 02 2015 23:00:29 GMT+0200 (CEST),Yes,0,No,No, ,0,,corporate,Nein,
ph9an8WGsnWD8TSZh,herb.besgen@gmail.com,Herb,Besgen,de,Mon Jun 22 2015 12:17:49 GMT+0200 (CEST),Mon Jun 22 2015 13:00:11 GMT+0200 (CEST),Yes,0,No,No, ,0,,corporate,Nein,
sGNsWeAxZ5gSYxYPJ,marc@fragt-marc.de,Marc,Linkert,de,Sun Jul 26 2015 23:04:58 GMT+0200 (CEST),Sun Jul 26 2015 23:51:10 GMT+0200 (CEST),Yes,40.00,No,No, ,1.5,Sun Jul 26 2015 23:24:28 GMT+0200 (CEST),corporate,
uDZ6NQNpHmt6Xtd65,lukasgamlich@hotmail.com,Lukas,Gamlich,undefined,Sat Jan 17 2015 17:45:26 GMT+0100 (CET),,Yes,0,No,No, ,0,,private,Nein,
vSCj6THfmqKpWZXF4,elisa.kieselbach@icons.at,Elisa,Kieselbach,undefined,Thu Feb 26 2015 21:29:45 GMT+0100 (CET),Sun Mar 08 2015 16:46:30 GMT+0100 (CET),Yes,0,No,No, ,0,,private,Nein,
yY6RKdeTWgn3zdeYz,manuel_holzer@gmx.at,Manuel,Holzer,de,Tue Mar 24 2015 12:19:08 GMT+0100 (CET),Mon Jul 27 2015 14:09:28 GMT+0200 (CEST),Yes,10.00,No,No, ,14,Thu May 28 2015 07:31:42 GMT+0200 (CEST),private,Nein,
ENMjntrQYcSxBzS9T,mthtschiersch@t-online.de,Marie-Theres,Tschiersch,null,Tue Jul 21 2015 20:00:44 GMT+0200 (CEST),Sun Jul 26 2015 15:54:36 GMT+0200 (CEST),Yes,0.00,No,No, ,2,Tue Jul 21 2015 20:10:45 GMT+0200 (CEST),private,Nein,
Fo3eGKhtLS2HhEZwt,g-gerhard@hotmail.com,Gerhard,Glöcker,de,Fri Apr 03 2015 10:15:24 GMT+0200 (CEST),Tue Jun 02 2015 20:12:38 GMT+0200 (CEST),Yes,0,No,No, ,0,,private,Nein,
HcibvzKerLHN55tA3,cosma.alexandra@outlook.com,Alexandra,Cosma,undefined,Fri Jan 09 2015 11:05:55 GMT+0100 (CET),Fri Mar 27 2015 13:57:57 GMT+0100 (CET),Yes,0,Yes,No, ,2,Wed Mar 25 2015 14:08:15 GMT+0100 (CET),private,Nein,
zCpqpKwoBEF7c4daR,philipp.nett@me.com,Philipp,Nett,undefined,Tue Feb 17 2015 14:22:02 GMT+0100 (CET),,Yes,10,Yes,Yes, ,0,,private,Nein,
JT3Sz5ybMt6wjoEGB,ralph.decker@cityfinance.at,Ralph,Decker,de,Sat Apr 04 2015 13:16:59 GMT+0200 (CEST),Sat Apr 04 2015 18:59:11 GMT+0200 (CEST),Yes,0,No,No, ,0,,corporate,Nein,
KYhzvteSZHqkEi8au,tobias.solski@gmail.com,Tobias,Solski,de,Mon Mar 23 2015 14:43:02 GMT+0100 (CET),Sun Mar 29 2015 21:04:08 GMT+0200 (CEST),Yes,8.00,No,No, ,4,Tue Mar 24 2015 22:25:07 GMT+0100 (CET),corporate,Nein,EU Logistics Ltd,China,Hong Kong,null,Nathan Rd Mongkok KLN  International Tower 707-713,null,
LkwZzEarXpu3KFiFz,barbara@wiedmann.ch,Barbara,Wiedmann,de,Sat Apr 18 2015 01:12:22 GMT+0200 (CEST),Sat Apr 18 2015 14:37:47 GMT+0200 (CEST),Yes,0,No,No, ,0,,corporate,Nein,
MyMdNMzQzoFQ2bHAj,krauss.kevin@web.de,Kevin,Krauß,de,Mon Apr 27 2015 06:27:25 GMT+0200 (CEST),Mon Apr 27 2015 06:27:52 GMT+0200 (CEST),Yes,0,No,No, ,0,,private,Nein,
NtqiRT3CS8CpqRmnW,julbid01@gmail.com,Monika	Wöhrle,undefined,undefined,Thu Dec 11 2014 16:58:20 GMT+0100 (CET),,Yes,0,No,No, ,0,,private,Nein,
PtLZZmYRNvoebmKPu,samuel.scheer@notube.com,Samuel	Scheer,undefined,undefined,Thu Dec 11 2014 17:14:54 GMT+0100 (CET),,Yes,0,No,No, ,0,,private,Nein,
RKYYo4GaoLKzE4uQB,gerald@vscore.at,Gerald,Vana-Schaufler,null,Wed Jul 22 2015 08:36:42 GMT+0200 (CEST),Wed Jul 29 2015 18:19:28 GMT+0200 (CEST),Yes,0.00,No,No, ,0,Wed Jul 22 2015 08:43:16 GMT+0200 (CEST),corporate,Nein,
SdxsgceYPZcHowFAu,schikara@gmail.com,Sharad,Chikara,en,Fri Apr 10 2015 22:33:44 GMT+0200 (CEST),Sat Apr 11 2015 17:17:11 GMT+0200 (CEST),Yes,0,No,No, ,0,,private,Nein,
TWeDwm4WBffftD95g,jv@vnr.de,Joana,Voigt,de,Tue Jun 02 2015 10:53:42 GMT+0200 (CEST),Tue Jun 16 2015 13:47:13 GMT+0200 (CEST),Yes,0,No,No,vip,0,,corporate,Nein,
WZAyuxJ6GFL8R47Jk,k.dahmen@gmx.com,Katharina,undefined,undefined,Wed Mar 18 2015 10:46:22 GMT+0100 (CET),Wed Mar 18 2015 11:16:09 GMT+0100 (CET),Yes,0,No,No, ,0,,private,Nein,
YdNM3scSaAYbreF38,mib4mio@gmail.com,Michael,Blömeke,de,Wed Apr 15 2015 15:13:02 GMT+0200 (CEST),Fri Jul 24 2015 17:31:07 GMT+0200 (CEST),Yes,8.00,No,No, ,4,Wed Jul 22 2015 12:16:19 GMT+0200 (CEST),corporate,Nein,Michael Blömeke Marketing,Deutschland,Walzbachtal,75045,Durlacher Allee 44,DE143611818,
Zq3qJZrTEEXfL5ENB,philipp.schett@detecon.com,Philipp	Schett,undefined,en,Thu Dec 11 2014 17:47:25 GMT+0100 (CET),Tue Jul 07 2015 20:47:11 GMT+0200 (CEST),Yes,480,Yes,Yes, ,120,Sun Jun 28 2015 09:37:46 GMT+0200 (CEST),corporate,Nein,
amMD8w7iw7erE52s3,kitty-romy@web.de,Patricia,Schmid,de,Thu Apr 16 2015 12:16:45 GMT+0200 (CEST),Wed May 27 2015 10:09:48 GMT+0200 (CEST),Yes,0,No,No, ,0,,private,Nein,
bbivdb2ZiWyWE76JZ,peter-holzmann@re-gister.com,Peter,Holzmann,de,Tue Apr 07 2015 12:11:15 GMT+0200 (CEST),Tue Apr 07 2015 12:11:17 GMT+0200 (CEST),Yes,0,No,No, ,0,,corporate,Nein,
dJe9QGPxq3LKymHhd,aaaaa@aaaaa.com,1111111111111,11232e3d23ed,en,Mon Jul 06 2015 10:10:28 GMT+0200 (CEST),Mon Jul 06 2015 10:10:29 GMT+0200 (CEST),Yes,0,No,No, ,0,,private,Nein,
eGXEo7dXaK5nRT3RC,office@g-crystals.com,easy,Crystal,undefined,Thu Dec 11 2014 17:48:26 GMT+0100 (CET),,Yes,-2,Yes,No,vip,2,Tue Feb 03 2015 16:00:25 GMT+0100 (CET),private,Nein,
f2Gv9ppqrHqWLfzhZ,teamwork@viktor-siemens.de,Viktor,Siemens,de,Wed May 27 2015 16:30:54 GMT+0200 (CEST),Wed May 27 2015 16:33:20 GMT+0200 (CEST),Yes,0,No,No, ,0,,corporate,Nein,
h5aMLMgqrtBqcSrH5,info@bensco.de,Benjamin,Oestreich,de,Thu Apr 16 2015 23:34:21 GMT+0200 (CEST),Tue Jun 23 2015 10:05:18 GMT+0200 (CEST),Yes,0,No,No, ,0,,corporate,Nein,
iEzKhTX6MzarmGXzk,svenhansen87@gmail.com,Sven,Hansen,undefined,Thu Mar 12 2015 13:44:29 GMT+0100 (CET),Thu Mar 12 2015 13:52:06 GMT+0100 (CET),Yes,0,No,No, ,0,,private,Nein,
igEGbZuXskhJTNomb,client@example.com,Anim,Client,undefined,Thu Jan 08 2015 21:27:50 GMT+0100 (CET),,Yes,0,No,No, ,0,,private,Nein,
jwihaxcgpdyA4jg78,office@segments.at,Ivo,Radulovski,de,Sun Jun 07 2015 22:37:13 GMT+0200 (CEST),Thu Jun 11 2015 10:44:51 GMT+0200 (CEST),Yes,0,No,No, ,0,,corporate,Nein,
JBzWGcLTM4NqX4npm,office@fortuneadvisers.at,michael,loeb,de,Mon Apr 06 2015 21:39:32 GMT+0200 (CEST),Mon Apr 06 2015 21:40:45 GMT+0200 (CEST),Yes,0,No,No, ,0,,corporate,Nein,FORTUNE Advisers GmbH,Österreich,Wien,1010,Canovagasse 7/10a,ATU68464379,
Jvh5iPcu2Cemvfr2Z,info@equilibriumstate.de,Dirk,Beckmann,de,Wed May 27 2015 09:13:27 GMT+0200 (CEST),Fri Jun 05 2015 19:48:24 GMT+0200 (CEST),Yes,0.00,No,No, ,11,Thu May 28 2015 11:43:10 GMT+0200 (CEST),corporate,Nein,ES-Equilibrium State,Deutschland,Düsseldorf,40237,Lindemannstr 7,DE280680167,
L4S8gNaNdEZTJ33Mx,office@chadim.com,Frederic,Chadim,de,Fri Apr 03 2015 12:52:21 GMT+0200 (CEST),Thu Jun 04 2015 00:30:04 GMT+0200 (CEST),Yes,8.00,No,No, ,12,Wed Apr 22 2015 18:01:00 GMT+0200 (CEST),corporate,Nein,Group Chadim.com Ges.m.b.H:,AT,Wien,1220,Am Kaisermühlendamm 67 / Top 17A,ATU67109158,
MGNH45pJYkiBGitKB,ewein@gmx.at,Mathias,Posch,de,Sun Apr 12 2015 18:18:12 GMT+0200 (CEST),Sun Apr 12 2015 18:18:14 GMT+0200 (CEST),Yes,0,No,No, ,0,,corporate,Nein,
NCBv4cFWqDArgSkD2,r.sennhenn@gmx.net,Rene,Sennhenn,de,Wed Jul 15 2015 19:55:22 GMT+0200 (CEST),Fri Jul 24 2015 19:45:03 GMT+0200 (CEST),Yes,0.00,No,No, ,0,Tue Jul 21 2015 15:32:47 GMT+0200 (CEST),private,Nein,
P9nhJaNqBv2YxoMNj,michael.hager.wien@gmail.com,Michael,Hager,de,Fri Mar 13 2015 11:16:31 GMT+0100 (CET),Thu Jul 02 2015 19:38:09 GMT+0200 (CEST),Yes,4.00,No,No, ,6,Sat May 09 2015 12:34:48 GMT+0200 (CEST),private,Nein,
QK2MJT58zEYKNcS8v,taskwunder@lk-netzwerk.de,Eckhard,Lechner,de,Mon Jun 15 2015 17:11:17 GMT+0200 (CEST),Tue Jun 30 2015 22:07:44 GMT+0200 (CEST),Yes,10.00,Yes,No, ,10,Sat Jun 20 2015 12:40:16 GMT+0200 (CEST),corporate,Nein,Lechner & Kollegen GmbH,Deutschland,Müllheim,79379,Sonnholenweg 12,DE230985170,
RZPHuNx3ZjGonGcbN,jennewein@stadtwerke.woergl.at,Reinhard,Jennewein,de,Tue Apr 07 2015 09:40:23 GMT+0200 (CEST),Tue Apr 07 2015 11:40:55 GMT+0200 (CEST),Yes,0,No,No, ,0,,corporate,Nein,
TApzt2rmauJFGGnqN,mail.hensler@gmail.com,Elfriede,Hensler,de,Fri Apr 03 2015 13:53:54 GMT+0200 (CEST),Sun Apr 05 2015 16:16:27 GMT+0200 (CEST),Yes,0,No,No, ,0,,private,Nein,
W674cZ4eS8DecjMDB,psuhling@mac.com,Peter,Suhling,undefined,Wed Feb 25 2015 17:26:01 GMT+0100 (CET),,Yes,-10.50,Yes,No,vip,10.5,Tue Apr 21 2015 16:32:56 GMT+0200 (CEST),private,Nein,
XbdpGYQ77Y42JqHJk,juergen.schoener@outlook.com,Jürgen,undefined,undefined,Mon Feb 16 2015 22:52:04 GMT+0100 (CET),Thu Mar 26 2015 21:54:13 GMT+0100 (CET),Yes,0.00,No,No, ,0,,private,Nein,
Z2ZGRixBEMJAp6A29,rkaeuper@gmx.de,Rene ,Käuper,de,Mon Jul 13 2015 15:01:11 GMT+0200 (CEST),Fri Jul 31 2015 10:26:43 GMT+0200 (CEST),Yes,0.00,No,No, ,0,Tue Jul 28 2015 08:59:54 GMT+0200 (CEST),private,Nein,
aFjLsrBYaQSC38NHm,a.zsilla@gmail.com,Andreas,Zsilla,de,Thu Apr 02 2015 21:14:45 GMT+0200 (CEST),Fri Apr 03 2015 05:35:10 GMT+0200 (CEST),Yes,0,No,No, ,0,,private,Nein,
awAurkQLNiQtN6dhp,mail@stefanfellner.com,Stefan,Fellner,de,Fri Apr 03 2015 13:21:29 GMT+0200 (CEST),Fri Apr 03 2015 14:51:20 GMT+0200 (CEST),Yes,0,No,No, ,0,,corporate,Nein,
bsAjHnw57DXcaWNbD,martin@wiedmann.ch,Martin,Wiedmann,de,Fri Apr 17 2015 21:55:14 GMT+0200 (CEST),Sat Apr 18 2015 00:38:24 GMT+0200 (CEST),No,-1389.51,Yes,Yes,vip,1404.1299999999994,Thu Jul 02 2015 22:34:05 GMT+0200 (CEST),corporate,Nein,
kguaA8eBrP3CPAt9f,j.hager@transkriptionswunder.com,TranskriptWunder,Jakob Hager,de,Tue Jan 13 2015 20:42:05 GMT+0100 (CET),Fri Jul 31 2015 11:13:30 GMT+0200 (CEST),Yes,-2062.12,Yes,No,vip,1927.9599999999984,Thu Jul 30 2015 15:02:19 GMT+0200 (CEST),corporate,Nein,TaskWunder GmbH,Österreich,,1050,Siebenbrunnengasse 17,ATU69384935,
mfiNwayBFsnbnMb6m,siegl@youngenterprises.at,Stefan,Siegl,undefined,Tue Mar 03 2015 17:15:28 GMT+0100 (CET),Tue Mar 03 2015 17:26:13 GMT+0100 (CET),Yes,0,No,No, ,0,,private,Nein,
oDfCRb4dLZuZSx2vL,lha.wagner@googlemail.com,Hendrikje,Wagner,de,Fri Apr 17 2015 23:05:01 GMT+0200 (CEST),Mon May 18 2015 10:04:48 GMT+0200 (CEST),Yes,1.00,Yes,No, ,4,Sun May 10 2015 21:48:29 GMT+0200 (CEST),private,Nein,
p5MfdXjBHvpxnZjn4,heiko@nv.ag,Heiko,Häusler,de,Tue Feb 17 2015 15:28:26 GMT+0100 (CET),Wed Jun 24 2015 14:22:08 GMT+0200 (CEST),No,-306.62,Yes,No,vip,301.81000000000006,Thu Jul 30 2015 07:40:56 GMT+0200 (CEST),private,Nein,
rca2N7khddBrkcNwC,svenstenz@icloud.com,Sven,Stenz,null,Thu Jul 30 2015 14:01:19 GMT+0200 (CEST),Fri Jul 31 2015 11:19:15 GMT+0200 (CEST),Yes,0.00,No,No, ,0,Thu Jul 30 2015 14:49:36 GMT+0200 (CEST),private,
sSiNereGJFBBYdzMr,maximaconcept@googlemail.com,Manfred,Gronych,de,Tue Apr 07 2015 21:54:50 GMT+0200 (CEST),Sun Jul 12 2015 16:46:16 GMT+0200 (CEST),Yes,0.00,No,No, ,10,Mon May 18 2015 16:45:42 GMT+0200 (CEST),corporate,Nein,Maxima Concept GmbH,Deutschland,Bad Soden,65812,Richard Wagner Str. 3,DE225684697,
uZ8MseB9twiFhqvx7,taskwunder@blitzmetrics.com,Dennis,Yu,en,Fri Apr 03 2015 20:57:42 GMT+0200 (CEST),Mon Jul 20 2015 13:11:36 GMT+0200 (CEST),Yes,-210.50,Yes,No,vip,365.5,Mon Jul 20 2015 12:08:56 GMT+0200 (CEST),corporate,Nein,BlitzMetrics,United States,New Hope,55427,4000 Winnetka,null,
xcFZoJAETxZGSBEgZ,jakob.hager@outlook.com,Jakob,Hager,de,Thu Apr 30 2015 21:07:56 GMT+0200 (CEST),Fri May 01 2015 09:20:10 GMT+0200 (CEST),Yes,0,No,No, ,0,,corporate,Nein,
yoJvPC4pXyjuf6QEp,thomashaag1@hotmail.com,Thomas,Haag,de,Thu Apr 02 2015 21:12:15 GMT+0200 (CEST),Thu Apr 02 2015 21:12:16 GMT+0200 (CEST),Yes,0,No,No, ,0,,private,Nein,
zn2DsdQouYiKMEQJw,dalma@traity.com,Dalma,Berkovics,undefined,Mon Dec 15 2014 10:36:23 GMT+0100 (CET),,Yes,0,No,No, ,0,,private,Nein,
JmzxMASjP5PRSP2g6,marc.linkert@t-online.de,Marc,Linkert,de,Sun Jul 26 2015 23:32:52 GMT+0200 (CEST),Thu Jul 30 2015 18:07:17 GMT+0200 (CEST),Yes,0.00,No,No, ,0,Sun Jul 26 2015 23:46:12 GMT+0200 (CEST),private,
Km3qoyrf2JGzTxkBC,info@abh24.com,Halil,Eskitürk,undefined,Thu Mar 26 2015 23:57:14 GMT+0100 (CET),Fri Mar 27 2015 07:52:41 GMT+0100 (CET),Yes,0,No,No, ,0,,corporate,Nein,
dT2CtBbiEmcXjtKqA,david.liebowitz@gmail.com,David,Liebowitz,en,Mon Jun 22 2015 20:29:27 GMT+0200 (CEST),Mon Jun 22 2015 20:48:27 GMT+0200 (CEST),Yes,0,No,No, ,0,,private,Nein,
eYwE3YJPCCFBxMnPx,info@michaelpettke.de,Michael,Pettke,de,Thu Mar 12 2015 09:37:28 GMT+0100 (CET),Thu Apr 16 2015 09:17:45 GMT+0200 (CEST),Yes,0,No,No, ,0,,private,Nein,
gCD39fGCv9uP6jP2y,maildirektanmicha@gmail.com,Michael,Turbanisch,undefined,Thu Jan 08 2015 18:55:11 GMT+0100 (CET),Sun Mar 22 2015 09:05:12 GMT+0100 (CET),Yes,18.00,Yes,No,vip,2,Mon Feb 16 2015 13:00:02 GMT+0100 (CET),private,Nein,
hGyvHiRvR8LmStAhW,michael.zikes@intauria.com,Michael,Zikes,de,Fri Apr 03 2015 22:12:28 GMT+0200 (CEST),Tue Apr 07 2015 21:50:29 GMT+0200 (CEST),Yes,0,No,No, ,0,,corporate,Nein,intauria GmbH,Österreich,Graz,8020,Kalvariengürtel 50b/3,ATU68396513,
iQDDZNbJwAKNvLNvd,sascha@traderiq.net,Ivanovic,undefined,de,Tue Mar 17 2015 15:48:59 GMT+0100 (CET),Sun Mar 29 2015 18:51:46 GMT+0200 (CEST),Yes,0,No,No, ,0,,private,Nein,
ijAWxaZNQso7DPrJW,monika.adrian.imarketer@gmail.com,Monika,Adrian,de,Mon Mar 30 2015 21:41:38 GMT+0200 (CEST),Tue Mar 31 2015 16:05:08 GMT+0200 (CEST),Yes,0,No,No, ,0,,private,Nein,
kS7csjobYtJYkFEsT,nlatestuser8@gmail.com,Max,Mustermann,de,Tue Jun 23 2015 15:01:57 GMT+0200 (CEST),Tue Jun 23 2015 15:10:05 GMT+0200 (CEST),Yes,0.00,No,No, ,0,Tue Jun 23 2015 15:04:31 GMT+0200 (CEST),private,Nein,
m6EK7ZyguEoa6yTFK,robert.lech@icloud.com,Robert,Lech,de,Sun Apr 26 2015 21:40:36 GMT+0200 (CEST),Sun Apr 26 2015 22:19:53 GMT+0200 (CEST),Yes,0,No,No, ,0,,corporate,Nein,
nCErzLLq5q44p25eE,pich@youngenterprises.at,Florian,Pich,de,Wed Jan 21 2015 15:28:14 GMT+0100 (CET),Wed Apr 01 2015 11:12:59 GMT+0200 (CEST),Yes,356,No,No, ,24,Wed Jan 21 2015 15:50:56 GMT+0100 (CET),private,Nein,
M4cXzAa6zFrRYzw4H,office@wiener-konzertbuero.at,Antonia,Wittenberger,undefined,Fri Feb 13 2015 10:03:08 GMT+0100 (CET),Wed Mar 25 2015 11:53:51 GMT+0100 (CET),Yes,0,No,No, ,0,,private,Nein,
NAA8HhFJY454mxpNJ,recruiting@taskwunder.com,Recruiting,Taskwunder,de,Wed Apr 08 2015 13:42:41 GMT+0200 (CEST),Thu Jul 23 2015 09:53:47 GMT+0200 (CEST),Yes,-132.00,Yes,No,vip,100.5,Fri Jul 10 2015 14:31:51 GMT+0200 (CEST),corporate,Nein,
NwKT3bj2HrfWTmcrW,burkert-@gmx.de,Peter ,Burkert,null,Mon Jul 13 2015 12:16:57 GMT+0200 (CEST),Mon Jul 13 2015 12:16:57 GMT+0200 (CEST),Yes,0,No,No, ,0,,private,Nein,
Q63KrjrYXbFdGsK58,test@mytest.at,Testkunde,undefined,undefined,Mon Mar 16 2015 09:17:51 GMT+0100 (CET),Mon Mar 16 2015 09:38:43 GMT+0100 (CET),Yes,2.00,No,No, ,0,,private,Nein,
RXWn7ogjwPPpeSA5e,unterweiler@aol.de,claudia,unterweiler,de,Fri Apr 10 2015 08:24:23 GMT+0200 (CEST),Fri Apr 10 2015 12:39:47 GMT+0200 (CEST),Yes,0,No,No, ,0,,private,Nein,
SfnSgJDXSYLkHxchY,info@jolta.de,Lukas,Milkowski,undefined,Mon Mar 02 2015 21:59:45 GMT+0100 (CET),Tue Mar 03 2015 10:57:40 GMT+0100 (CET),Yes,-376.32,Yes,No,vip,343.24,Fri Jul 31 2015 02:00:44 GMT+0200 (CEST),private,Nein,
TcJaHA3TgBQmrKDm7,wieland@kubus-translations.com,Wieland,Haselbauer,de,Mon May 18 2015 21:13:03 GMT+0200 (CEST),Fri Jul 10 2015 12:55:14 GMT+0200 (CEST),Yes,4.00,No,No, ,6,Mon Jun 15 2015 08:18:47 GMT+0200 (CEST),corporate,Nein,Wieland Haselbauer  kubus translations,DE,Leipzig,04299,Naunhofer Str 57,DE141534148,
JHooxXhJ8sz9mWWCe,nlatestuser7@gmail.com,Test,Zahlung,de,Wed Jun 17 2015 11:52:34 GMT+0200 (CEST),Tue Jun 23 2015 15:01:27 GMT+0200 (CEST),Yes,0,No,No, ,0,,private,Nein,
KJPtj8i4H2otaWYHP,info@pirate-consult.com,Christoph,Fluri-Heckenbuecker,undefined,Thu Jan 22 2015 08:13:18 GMT+0100 (CET),Tue Mar 17 2015 14:57:30 GMT+0100 (CET),Yes,-21.07,Yes,No,vip,21.07,Wed Apr 08 2015 14:07:27 GMT+0200 (CEST),private,Nein,
LfZxLjWY2jxYRXR4F,slobodan.blazeski@gmail.com,Slobodan,Blazeski,en,Mon Apr 27 2015 20:53:22 GMT+0200 (CEST),Mon Apr 27 2015 21:09:45 GMT+0200 (CEST),Yes,0,No,No, ,0,,private,Nein,
MRBEFicWZftRA6jjW,ira@fid-verlag.de,Inga ,Ramacher,undefined,Wed Mar 25 2015 10:44:02 GMT+0100 (CET),Wed Mar 25 2015 11:56:32 GMT+0100 (CET),No,-30.84,Yes,Yes,vip,0,Wed Apr 08 2015 10:51:13 GMT+0200 (CEST),corporate,Nein,
NiHYXQ7DkXtnzudfW,fnaegele@ethz.ch,Florian,Naegele,undefined,Thu Dec 11 2014 17:04:16 GMT+0100 (CET),,Yes,0,No,No, ,0,,private,Nein,
Pk9GBaCcCWSfDuJwi,kke@vnr.de,vnr_kke,undefined,de,Fri Mar 27 2015 16:28:33 GMT+0100 (CET),Wed Jul 29 2015 12:33:44 GMT+0200 (CEST),Yes,-222.50,Yes,Yes,vip,240.5,Wed Jul 08 2015 19:08:50 GMT+0200 (CEST),corporate,Nein,Verlag für die Deutsche Wirtschaft AG,Deutschland,,53177,Theodor-Heuss-Str. 2-4,DE 812639372,
QrY4pTqjfbTiTAHjp,katrin.weinert@hotmail.de,Katrin,Weinert,de,Thu Apr 23 2015 10:27:39 GMT+0200 (CEST),Thu Apr 23 2015 10:28:13 GMT+0200 (CEST),Yes,0,No,No, ,0,,private,Nein,
SJBpkt9h8hH7saFPu,pfeiffer-walldorf@web.de,Thomas,Pfeiffer,de,Mon Jan 19 2015 19:30:30 GMT+0100 (CET),Wed Apr 15 2015 08:30:20 GMT+0200 (CEST),Yes,0,No,No, ,0,,private,Nein,
oJq36NiHNo2C3raFQ,get@jle.vi,Jonathan,Levi,en,Mon Jan 26 2015 11:17:07 GMT+0100 (CET),Fri Jul 31 2015 11:04:36 GMT+0200 (CEST),No,-42.68,Yes,No,vip,52.67999999999999,Tue Jul 28 2015 17:54:54 GMT+0200 (CEST),private,Nein,
pf8ipc36GdRRPpkG9,w.merkt@taskwunder.com,Wolf,undefined,en,Mon Dec 15 2014 14:15:17 GMT+0100 (CET),Sun Jul 05 2015 18:31:14 GMT+0200 (CEST),Yes,0,No,No, ,0,,private,Nein,
rvQrHE9M7Bi3Hoc5E,info@sei-einzigartig.de,Silvija,Grbavac,de,Tue Mar 31 2015 13:16:44 GMT+0200 (CEST),Tue May 12 2015 18:12:43 GMT+0200 (CEST),Yes,0.00,No,No, ,6,Mon May 11 2015 08:22:35 GMT+0200 (CEST),corporate,Nein,eventAS,Deutschland,Bühl,77815,Johannes Passage 8,null,
tyRaxxfucs8p828bC,hansjoachim.fabry@t-online.de,Hans,Fabry,de,Mon Jul 13 2015 12:50:11 GMT+0200 (CEST),Wed Jul 29 2015 17:32:01 GMT+0200 (CEST),Yes,0.00,No,No, ,0,Mon Jul 13 2015 20:32:25 GMT+0200 (CEST),private,Nein,
unNKFqtcBacPfqeiY,sebastiansieben@web.de,Sebastian,Sieben,de,Thu Dec 11 2014 17:55:25 GMT+0100 (CET),Tue Jul 28 2015 21:34:53 GMT+0200 (CEST),Yes,1.50,Yes,Yes, ,48.25,Tue Jul 21 2015 18:35:52 GMT+0200 (CEST),private,Nein,
yBsp8MvcRRu7xPYde,powererfolgscoach@gmail.com,Anita,Keller,undefined,Thu Mar 12 2015 18:28:36 GMT+0100 (CET),Thu Mar 19 2015 02:53:30 GMT+0100 (CET),Yes,4.00,Yes,Yes, ,6,Mon Mar 16 2015 20:11:44 GMT+0100 (CET),private,Nein,
ys5buznq3XpHEmXGo,super-job@bluewin.ch,Josef,Schöpfer,de,Sat May 30 2015 02:51:42 GMT+0200 (CEST),Sat Jun 06 2015 19:36:31 GMT+0200 (CEST),Yes,0.00,No,No, ,0,Sun May 31 2015 03:46:47 GMT+0200 (CEST),private,Nein,
zyTAXWxp7gQ3NnFEB,magic@dan-berlin.com,Dan,Berlin,de,Wed Jun 03 2015 15:00:03 GMT+0200 (CEST),Thu Jul 30 2015 20:33:37 GMT+0200 (CEST),Yes,68.30,Yes,No, ,71.69999999999999,Tue Jul 21 2015 14:33:17 GMT+0200 (CEST),corporate,Ja,Dan Berlin ,Deutschland ,Hilden,40724,frans Hals Weg 3,De281841019,
WjPENTcbpGA6HhriE,gabi-wittke@gmx.net,Gabi,Wittke,de,Sun Apr 19 2015 20:26:53 GMT+0200 (CEST),Tue Apr 21 2015 18:45:59 GMT+0200 (CEST),Yes,0,No,No, ,0,,corporate,Nein,
YiEn2Gv64QekgFms5,an@nicolaikrueger.de,Nicolai,Krüger,de,Mon May 18 2015 01:03:19 GMT+0200 (CEST),Mon May 18 2015 01:04:59 GMT+0200 (CEST),Yes,0,No,No, ,0,,corporate,Nein,
Zxt3BueZQuwxeLaCe,v.zambelli@taskwunder.com,Valentin, Zambelli,de,Mon Dec 08 2014 16:48:28 GMT+0100 (CET),Thu Jul 30 2015 12:05:21 GMT+0200 (CEST),Yes,998.00,Yes,Yes, ,2,Mon Jun 15 2015 14:28:55 GMT+0200 (CEST),private,Ja,
ashkCkaLnKRgCPhBW,marcus@amann.de,Marcus,Amann,de,Mon Feb 23 2015 14:27:45 GMT+0100 (CET),Sun Jun 28 2015 15:50:19 GMT+0200 (CEST),Yes,1.90,Yes,No, ,8.1,Sun May 31 2015 16:13:50 GMT+0200 (CEST),corporate,Ja,amann.de,Deutschland,Tübingen,72076,Peter-Goessler-Str. 10,DE145232013,
boZoJRT79TGhHQuWx,florian.mezy@innov-mg.com,Florian,MEZY,undefined,Mon Feb 23 2015 16:36:52 GMT+0100 (CET),Wed Mar 11 2015 02:24:04 GMT+0100 (CET),Yes,0,No,No, ,0,,private,Nein,
dNjaZYEn8h2Gsv7Hy,ggupta0684@gmail.com,Gaurav,Gupta,en,Tue Mar 24 2015 06:40:29 GMT+0100 (CET),Sat Jun 13 2015 17:12:12 GMT+0200 (CEST),Yes,0,No,No, ,0,,private,Nein,
eQDEd5NLALQ4n6aMu,acosma@candena.com,candena,undefined,en,Wed Mar 25 2015 15:02:51 GMT+0100 (CET),Mon Mar 30 2015 12:55:25 GMT+0200 (CEST),Yes,-1.00,No,No,vip,1,Fri Mar 27 2015 15:22:56 GMT+0100 (CET),corporate,Nein,
g93j7dgQvwHsLiJNW,cmo@vnr.de,Charlotte,Mohr,de,Tue Jun 02 2015 10:52:56 GMT+0200 (CEST),Tue Jun 16 2015 13:57:51 GMT+0200 (CEST),Yes,0,No,No,vip,0,,corporate,Nein,
hEZ3ktcAJ2iYyRm4Z,hopperalph@gmx.de,Ralph,Hoppe,de,Fri Apr 24 2015 10:46:24 GMT+0200 (CEST),Fri Apr 24 2015 10:59:25 GMT+0200 (CEST),Yes,0,No,No, ,0,,private,Nein,
iL6ig8vwaonu6B7Mq,fro.g@gmx.at,Gerhard,Frohmann,de,Sat Apr 04 2015 07:25:01 GMT+0200 (CEST),Sun Apr 05 2015 10:50:39 GMT+0200 (CEST),Yes,0.00,No,No, ,0,,private,Nein,
iiiWGL3TeevCzkqgS,info@prestige-investment.com,Christine,Ulukan,de,Tue Apr 28 2015 15:57:18 GMT+0200 (CEST),Tue Apr 28 2015 15:58:51 GMT+0200 (CEST),Yes,0,No,No, ,0,,private,Nein,
k2Kd9zpq7BA3CDN7X,guenther@seidls.co.at,Günther,Seidl,de,Fri Apr 17 2015 18:55:18 GMT+0200 (CEST),Fri Apr 17 2015 18:56:13 GMT+0200 (CEST),Yes,0,No,No, ,0,,private,Nein,
kqZ6QtwDGxkhbqZnK,polsterer@werbeflitzer.at,Markus,Polsterer,de,Tue Apr 07 2015 15:19:51 GMT+0200 (CEST),Tue Apr 14 2015 17:28:57 GMT+0200 (CEST),Yes,0.00,No,No, ,0,,corporate,Nein,Markus Polsterer & Co KG,Österreich,Wien,1110,Trinkhausstraße 17,ATU44026308,
mr347eMesnh9ekQRX,faruk.besic@gmail.com,Daniel,Hechler,undefined,Tue Feb 24 2015 20:12:51 GMT+0100 (CET),Mon Mar 09 2015 15:08:50 GMT+0100 (CET),Yes,-402.50,Yes,Yes,vip,400.5,Thu Jul 09 2015 00:10:38 GMT+0200 (CEST),private,Nein,
oFnZ8SJ47zxa2WAoW,kubesajan@gmail.com,Jan,Kubeša,cs,Sun Jun 28 2015 20:58:19 GMT+0200 (CEST),Sun Jun 28 2015 20:59:53 GMT+0200 (CEST),Yes,0,No,No, ,0,,corporate,Nein,
pMmxvtiZcMQzf8wi3,info@globalpayments.de,Marcel,Leske,de,Mon Jun 15 2015 21:05:38 GMT+0200 (CEST),Mon Jun 15 2015 21:10:48 GMT+0200 (CEST),Yes,0,No,No, ,0,,corporate,Nein,
rkoHHbunYgX2GHoos,ivo.tobler@avnet.com,Ivo	Tobler,undefined,undefined,Thu Dec 11 2014 17:50:09 GMT+0100 (CET),,Yes,0,No,No, ,0,,private,Nein,
tG5G3XzWjiGR9D8sc,robertgruenwald@gmx.net,Robert,Grünwald,undefined,Mon Jan 26 2015 19:54:33 GMT+0100 (CET),,Yes,0,No,No, ,0,,private,Nein,
uk7SdLPnBzAThtWv3,funds@gmx.at,Gerald,Rauchegger,de,Sat Apr 04 2015 15:45:09 GMT+0200 (CEST),Sat Apr 04 2015 15:47:09 GMT+0200 (CEST),Yes,0,No,No, ,0,,private,Nein,
y35gdLwwadW7DdyvK,anr@vnr.de,Annette,Rompel,de,Wed Jun 17 2015 11:11:40 GMT+0200 (CEST),Wed Jun 17 2015 11:11:41 GMT+0200 (CEST),Yes,0,No,No,vip,0,,corporate,Nein,
yrppoRSipRqNWKAuK,oncewon@gmail.com,John,Turner,de,Thu Mar 05 2015 15:42:21 GMT+0100 (CET),Mon May 04 2015 18:22:29 GMT+0200 (CEST),Yes,0,Yes,No, ,0,,private,Nein,
zoPxngLdz3CrDqKNM,nikola_krisch@gmx.at,Nikola ,Krisch,de,Tue Apr 28 2015 23:44:29 GMT+0200 (CEST),Wed Apr 29 2015 13:11:17 GMT+0200 (CEST),Yes,0,No,No, ,0,,private,Nein,
TSsqPD5tBCmNTKggW,deell@gmx.net,Dirk,Lange,de,Sun Jul 26 2015 07:41:37 GMT+0200 (CEST),Thu Jul 30 2015 15:30:40 GMT+0200 (CEST),Yes,0.00,No,No, ,2,Sun Jul 26 2015 12:00:01 GMT+0200 (CEST),corporate,
WQqijmvB7ykFLtjjv,ho_po@freenet.de,Popken,Holger,de,Thu Apr 09 2015 14:53:32 GMT+0200 (CEST),Sat Apr 18 2015 17:40:20 GMT+0200 (CEST),Yes,0,No,No, ,0,,corporate,Nein,
YDCZBGDB5xoMGEBkm,hallo@hypno-coach.de,Ingo,Steinbock,undefined,Sat Mar 21 2015 13:58:53 GMT+0100 (CET),Sun Mar 22 2015 12:03:26 GMT+0100 (CET),No,-10.50,Yes,No,vip,10.5,Tue Apr 28 2015 10:35:34 GMT+0200 (CEST),private,Nein,
ZbjN4HXnvx9eDtZeT,ingo.cebandt@bundesverband-kosmetik.de,Ingo,Cebandt,de,Tue Apr 28 2015 21:42:26 GMT+0200 (CEST),Sat May 30 2015 16:33:11 GMT+0200 (CEST),Yes,0,No,No, ,0,,corporate,Nein,
aNsv9WmbRp7aibose,chris.gr@gmx.at,Chris,Gr,de,Fri Apr 24 2015 12:21:38 GMT+0200 (CEST),Fri Apr 24 2015 12:22:43 GMT+0200 (CEST),Yes,0,No,No, ,0,,private,Nein,
bK7Ehwsrcb3xGSdya,florian.kleedorfer@researchstudio.at,Florian,Kleedorfer,undefined,Fri Dec 19 2014 15:01:49 GMT+0100 (CET),,Yes,-3,No,No, ,0,,private,Nein,
cfcKyjuwLatFES9Ss,ceragem-gelsenkirchen@email.de,Eugen,Nowakowski,de,Sun May 17 2015 14:28:31 GMT+0200 (CEST),Tue Jun 30 2015 13:38:50 GMT+0200 (CEST),Yes,0.00,No,Yes, ,40,Sun May 31 2015 12:39:08 GMT+0200 (CEST),corporate,Nein,Ceragem-Gelsenkirchen  Inh. Eugen Nowakowski,Deutschland,Gelsenkirchen,45881,Bismarckstr. 119,DE265854527,
dtYe9YNQEyMzZkhbx,jbe@fid-verlag.de,Jörg,Becker,de,Tue Apr 14 2015 17:57:30 GMT+0200 (CEST),Tue May 12 2015 12:33:46 GMT+0200 (CEST),Yes,-0.50,Yes,No,vip,0.5,Mon May 04 2015 21:48:54 GMT+0200 (CEST),corporate,Nein,FID Verlag GmbH,Deutschland,Bonn,53177,enzer Straße 99,DE 811270471,
ep7gbG4tJqMiB7Epd,kontakt@alex-fischer-duesseldorf.de,Alex,Fischer,de,Fri Jun 12 2015 21:12:34 GMT+0200 (CEST),Mon Jul 13 2015 01:05:43 GMT+0200 (CEST),Yes,0,No,No, ,0,,corporate,Nein,
gdvG7EhrpfxsQMLWP,office@musiktotal.at,Gerhard,Sponseiler,de,Fri Apr 03 2015 09:33:43 GMT+0200 (CEST),Fri Jul 24 2015 11:53:51 GMT+0200 (CEST),Yes,-26.00,No,No,vip,66,Wed May 27 2015 10:38:28 GMT+0200 (CEST),corporate,Ja,Gerhard Sponseiler,Österreich,Raxendorf,3654,Raxendorf  10,ATU56165713,
hZWwJd9XAZuFPX228,roman.flor@aon.at,Roman,Flor,de,Wed May 06 2015 10:40:18 GMT+0200 (CEST),Wed Jun 24 2015 13:35:51 GMT+0200 (CEST),Yes,0.00,No,No, ,20,Wed May 06 2015 11:41:25 GMT+0200 (CEST),private,Nein,
ifEocvGRxfA2rszBd,peterfriedewald@versanet.de,Peter,Friedewald,de,Tue Jul 28 2015 11:51:37 GMT+0200 (CEST),Fri Jul 31 2015 11:01:46 GMT+0200 (CEST),Yes,0.00,No,No, ,0,Tue Jul 28 2015 11:59:02 GMT+0200 (CEST),private,
jskrJijEp86JknEsP,office@markuscerenak.com,Markus,Cerenak,null,Fri Jul 24 2015 08:37:45 GMT+0200 (CEST),Fri Jul 24 2015 09:03:07 GMT+0200 (CEST),Yes,0,No,No, ,0,,corporate,Nein,
kasMtpcMAueBPQHwf,info@bautenschutz-schrewe.de,Schrewe,Markus,de,Wed May 20 2015 14:52:08 GMT+0200 (CEST),Mon Jun 01 2015 07:47:24 GMT+0200 (CEST),Yes,0.00,No,No, ,10,Wed May 20 2015 15:43:46 GMT+0200 (CEST),corporate,Nein,
mZtkmAfhxRJ6QrmGp,vasil@startupsocials.com,Vasil,Azarov,undefined,Fri Mar 06 2015 20:22:59 GMT+0100 (CET),Fri Mar 06 2015 23:18:17 GMT+0100 (CET),Yes,0,No,No, ,0,,private,Nein,
nzuAwHQZojLDw3qs6,info@blickwerbung.de,Zied,Ouhichi,undefined,Tue Mar 17 2015 23:27:34 GMT+0100 (CET),Wed Mar 18 2015 16:51:52 GMT+0100 (CET),Yes,11.00,No,Yes, ,0,,private,Nein,
ozE6boGe3ER2H7Wee,valentin.zambelli@outlook.com,Valentin Zambelli,Sopalu,null,Mon Jul 13 2015 12:30:25 GMT+0200 (CEST),Thu Jul 16 2015 16:04:14 GMT+0200 (CEST),Yes,0,No,No, ,0,,private,Nein,
qsQA3DQyGFSCLn9Kx,anim.client@eml.i24.cc,Anim,undefined,en,Fri Dec 12 2014 18:42:13 GMT+0100 (CET),Wed Jul 29 2015 16:13:04 GMT+0200 (CEST),Yes,2.00,No,No, ,0,,corporate,Nein,
sGY49vuKqcCSGhagm,fj@jowe.at,Florian,Jungwirth,de,Thu Apr 02 2015 21:18:04 GMT+0200 (CEST),Thu Apr 02 2015 21:18:05 GMT+0200 (CEST),Yes,0,No,No, ,0,,corporate,Nein,
uQAWAPjQFG9FkBRMZ,sabine.resch@gmx.at,Sabine,Resch,de,Tue Jun 23 2015 08:17:22 GMT+0200 (CEST),Thu Jul 02 2015 11:47:36 GMT+0200 (CEST),Yes,0,No,No, ,0,,private,Nein,
wdgQbqDnDHxpwbRG7,jcamejo3@gmail.com,Juan,Camejo,en,Wed May 13 2015 17:28:05 GMT+0200 (CEST),Wed May 20 2015 01:59:43 GMT+0200 (CEST),Yes,0,No,No, ,0,,private,Nein,
yk9AHRPTgW7eNetfu,mirela@transformationunlimited.net,Mirela	Vahdani,undefined,undefined,Thu Dec 11 2014 16:55:10 GMT+0100 (CET),,Yes,-30.50,Yes,No,vip,64,Tue Jun 16 2015 20:21:53 GMT+0200 (CEST),private,Nein,
zbP8DoHofZL3aC75H,abrechnung@zunker-gmbh.de,Rudolf (Rudy),Zunker,de,Tue Jul 21 2015 12:33:33 GMT+0200 (CEST),Sat Jul 25 2015 12:52:16 GMT+0200 (CEST),Yes,0.00,No,No, ,0,Tue Jul 21 2015 12:56:24 GMT+0200 (CEST),corporate,Nein,
