Created,Client ID,Firstname,Lastname,Email,Payment ID,Brutto,Netto,Name
2015-07-28T14:08:28Z,B4t49T7awxmYcCTxS,Jürgen,Winkler,schurkerl@gmx.at,PAY-38N33156M5003900GKW3YZXA,168.00,140,10 Stunden TaskWunder Guthaben,
2015-07-26T21:25:04Z,sGNsWeAxZ5gSYxYPJ,Marc,Linkert,marc.linkert@t-online.de,PAY-0T0386682U0781053KW2VAMA,624.00,520,40 Stunden TaskWunder Guthaben,
2015-07-26T11:43:26Z,9BNGaedoKFZc4Pimt,Michael,Kern,mail@mike-kern.de,PAY-8TX88086MT290042KKW2MPXQ,36.00,30,Produktcover Haarausfall,
2015-07-18T10:00:31Z,6J6rdeofcqsuNnJvj,Oliver,Ross,oliverross@web.de,PAY-0EH11746SG3846809KWVCHPY,168.00,140,10 Stunden TaskWunder Guthaben,
2015-07-11T10:34:11Z,zyTAXWxp7gQ3NnFEB,daniel,boden,danielboden02@yahoo.de,PAY-5VU27527363181233KWQPCIY,1200.00,1200,100 Stunden TaskWunder Guthaben,
2015-07-09T09:11:47Z,dbtkbxFE9S6unXeuc,Sebastian,Wenzel,paypal@honestly.de,PAY-88K22634B72117526KWPDVUY,520.00,520,40 Stunden TaskWunder Guthaben,
2015-06-30T21:41:55Z,6gftjt3f9foBrhW3z,mark,walker,marksw38@msn.com,PAY-7WR280125F669962KKWJQ2IY,168.00,140,10 hours TaskWunder Balance,
2015-06-24T20:02:55Z,QK2MJT58zEYKNcS8v,Eckhard,Lechner,paypal@lk-netzwerk.de,PAY-0FE80534TE270831XKWFQZ3Y,140.00,140,10 Stunden TaskWunder Guthaben,
2015-06-15T05:51:38Z,TcJaHA3TgBQmrKDm7,Kurt,Haselbauer,pilipino@gmx.net,PAY-2NH8750248792372HKV7GP2Q,140.00,140,10 Stunden TaskWunder Guthaben,
2015-05-29T14:05:32Z,jpWTjyWzb2qsYyq87,Nils,Bartels,paypal@lootchest.de,PAY-5G012287ED3007800KVUHELA,144.00,15,1 Stunden TaskWunder Guthaben,
2015-05-29T10:55:15Z,Jvh5iPcu2Cemvfr2Z,,Beckmann,dirkbeckmann78@hotmail.com,PAY-8X9792781S6287041KVUELEY,15.00,15,Projekt Digistore24 AudioProgramm,
2015-05-28T08:18:41Z,yY6RKdeTWgn3zdeYz,Manuel,Holzer,manuel_holzer@gmx.at,PAY-2P340192AR396653KKVTM6YI,72.00,15,1 Stunden TaskWunder Guthaben,
2015-05-27T07:18:08Z,Jvh5iPcu2Cemvfr2Z,Dirk,Beckmann,dirkbeckmann78@hotmail.com,PAY-4S621560CM1203159KVSW7MA,113.40,113.4,10 Stunden TaskWunder Guthaben (Gutschein: Michael-Pettke-bei-Taskwunder-minus-10 10 percent off),
2015-05-22T08:47:03Z,YdNM3scSaAYbreF38,Michael,Blömeke,info@adventurer.de,PAY-42F81656L77063222KVPO2BY,140.00,140,10 Stunden TaskWunder Guthaben,
2015-05-21T15:26:47Z,gdvG7EhrpfxsQMLWP,Gerhard,Sponseiler,office@musiktotal.at,PAY-9RC12583NW238304UKVO7SNY,520.00,520,40 Stunden TaskWunder Guthaben,
2015-05-20T13:15:28Z,kasMtpcMAueBPQHwf,,Schrewe,info@bautenschutz-schrewe.de,PAY-1CF97664Y8004972XKVOIR4A,168.00,140,10 Stunden TaskWunder Guthaben,
2015-05-20T12:02:48Z,DJXrZkQxJzg8Ka9AT,Matthias,Brandmüller,info@coach4business.de,PAY-9GV46594TF055652EKVOHP2A,168.00,140,10 Stunden TaskWunder Guthaben,
2015-05-20T10:44:37Z,dbtkbxFE9S6unXeuc,,Wenzel,paypal@honestly.de,PAY-67714231G2632730EKVOGLFI,7.50,7.5,Koordination der Videoerstellung REWE EDEKA DEGEN ,
2015-05-18T13:21:56Z,sSiNereGJFBBYdzMr,Manfred,Gronych,info@maxima-concept.de,PAY-50D688963M7160622KVM6O5A,168.00,140,10 Stunden TaskWunder Guthaben,
2015-05-13T09:39:16Z,DJXrZkQxJzg8Ka9AT,Matthias,Brandmüller,info@coach4business.de,PAY-52351728LC920502JKVJRXRA,144.00,120,Freebie Ratgeber usw.,
2015-05-07T21:14:07Z,unNKFqtcBacPfqeiY,Sebastian,Sieben,sebastiansieben@web.de,PAY-52051292AP0609428KVF5LHY,108.00,90,Cover  erstellen und Text formatieren für Neobooks,
2015-05-06T09:17:11Z,hZWwJd9XAZuFPX228,,Flor,roman.flor@aon.at,PAY-3VM940465H876315LKVE5YFY,168.00,140,10 Stunden TaskWunder Guthaben,
2015-05-06T09:13:04Z,hZWwJd9XAZuFPX228,Roman,Flor,roman.flor@aon.at,PAY-3S148963M4182931JKVE5WIA,168.00,140,10 Stunden TaskWunder Guthaben,
2015-04-29T15:19:07Z,jpWTjyWzb2qsYyq87,Nils,Bartels,paypal@lootchest.de,PAY-9E630121KS401763KKVAPM2Y,36.00,15,1 Stunden TaskWunder Guthaben,
2015-04-29T07:51:20Z,rvQrHE9M7Bi3Hoc5E,Silvija,Grbavac,info@sei-einzigartig.de,PAY-43J31346VR056480XKVAI26A,36.00,15,1 Stunden TaskWunder Guthaben,
2015-04-27T19:41:31Z,dbtkbxFE9S6unXeuc,Sebastian,Wenzel,paypal@honestly.de,PAY-73Y76360D7776192SKU7JB2Y,168.00,140,10 Stunden TaskWunder Guthaben,
2015-04-25T19:25:57Z,unNKFqtcBacPfqeiY,,Sieben,sebastiansieben@web.de,PAY-5AH68354CA290583JKU56URI,108.00,15,1 Stunden TaskWunder Guthaben,
2015-04-18T19:23:00Z,unNKFqtcBacPfqeiY,Sebastian,Sieben,sebastiansieben@web.de,PAY-3DV03436VU250421GKUZK6FA,72.00,undefined,1 Stunden TaskWunder Guthaben,
2015-04-16T15:16:25Z,rvQrHE9M7Bi3Hoc5E,Silvija,Grbavac,info@sei-einzigartig.de,PAY-5AG977269A8610918KUX5ESI,36.00,undefined,1 Stunden TaskWunder Guthaben,
2015-04-10T07:50:07Z,L4S8gNaNdEZTJ33Mx,Frederic,Chadim,office@chadim.com,PAY-1JX98178FA205934HKUTYBLY,168.00,undefined,10 Stunden TaskWunder Guthaben,
