ID,Email,First Name,Last Name,Language,Skills,Standard Rate, Premium Rate,Signup date,Last Login date,PA,PM,Moderator,Last Task completed,Account Type,Company Name,Country, City, Zipcode, Street, Tax ID
2nhBLT3XhnggR37SF,info@serviceagentur-franken.de,Karin,Kampfer,de,general;research;transcription;proofreading;writing;,10.00,15.00,Tue May 19 2015 14:40:07 GMT+0200 (CEST),Fri Aug 21 2015 12:19:19 GMT+0200 (CEST), , ,,Mon Aug 17 2015 16:25:27 GMT+0200 (CEST),private,
2Rd2zfKgTTmntQTkF,tinastepper@gmail.com,Bettina,Stepper,de,,0,0,Thu Jun 04 2015 09:15:16 GMT+0200 (CEST),Sat Aug 08 2015 11:54:04 GMT+0200 (CEST), , ,,,private,
3DZaWuGyAgPRqoZT9,valentin.zambelli@gmail.com,Valentin,Assistant,de,transcription;project-management;,10.00,20.00,Mon Dec 08 2014 17:00:25 GMT+0100 (CET),Wed Aug 19 2015 22:09:55 GMT+0200 (CEST),PA,PM,Moderator,Wed Aug 12 2015 23:16:04 GMT+0200 (CEST),private,
4Cn4yYMBK3Miyx5TN,c.zwanzleitner@gmail.com,Caroline,Z.,de,,0,0,Thu Apr 02 2015 22:33:19 GMT+0200 (CEST),Thu Apr 02 2015 22:33:49 GMT+0200 (CEST), , ,,,private,
5wYHfu9Tbh9SQYHJL,info@web-mastertools.de,Jessica,Ebert,null,,0,0,Mon Aug 17 2015 14:00:25 GMT+0200 (CEST),Fri Aug 21 2015 10:13:17 GMT+0200 (CEST), , ,,,private,
2T7zySyMowAftnH7Z,pierre@tektite.biz,Pierre,Ferreira,en,,0,0,Thu Apr 16 2015 10:23:56 GMT+0200 (CEST),Tue Apr 21 2015 15:42:26 GMT+0200 (CEST), , ,,,private,
3RCcTkQNMirapnrFh,samy@taskwunder.com,Samy,Zouari,de,general;research;transcription;,0,0,Tue Apr 14 2015 09:34:09 GMT+0200 (CEST),Thu Aug 06 2015 13:57:25 GMT+0200 (CEST),PA, ,Moderator,Tue May 26 2015 18:44:43 GMT+0200 (CEST),private,
4N7Txncvzfk3ig4dG,bw@lofdesign.at,Bernhard,Wytek,de,general;research;wordpress;photo-editing;ebook-cover-creation;allesmarketing-produkt-cover;allesmarketing-header-grafik;allesmarketing-freebie-cover;banner-set;,10.00,20.00,Mon Apr 13 2015 13:40:37 GMT+0200 (CEST),Fri Aug 21 2015 11:45:21 GMT+0200 (CEST), , ,,Tue Aug 18 2015 10:13:04 GMT+0200 (CEST),private,
66qwstts5QjGX25DC,renate.lutz@gmx.de,Renate,Lutz,de,,0,0,Thu Jun 18 2015 18:36:07 GMT+0200 (CEST),Wed Jun 24 2015 10:57:43 GMT+0200 (CEST), , ,,,corporate,
7JtgJJrmc2nQxKqtt,manuelapepaj1@gmail.com,Pepaj,Manuela,de,,0,0,Tue Jun 16 2015 08:42:21 GMT+0200 (CEST),Tue Jun 23 2015 16:02:27 GMT+0200 (CEST), , ,,Tue Jun 16 2015 14:40:27 GMT+0200 (CEST),private,
9tS2WCkfRiBS5Nehw,jo@cutemachine.com,Jo,Meenen,de,,0,0,Thu Apr 16 2015 10:58:31 GMT+0200 (CEST),Thu Apr 16 2015 11:36:06 GMT+0200 (CEST), , ,,,corporate,
27vBjSpvhaH3LHfPK,mobile.office.management@aon.at,Sigrid,Tausch,de,general;research;transcription;,10.00,20.00,Fri Apr 24 2015 11:35:45 GMT+0200 (CEST),Thu Aug 20 2015 12:05:31 GMT+0200 (CEST), , ,,Tue Aug 18 2015 23:22:54 GMT+0200 (CEST),private,
2tdNb4hSKMK2xwcuA,m.vonderheyde@gmx.de,Martina,von der Heyde,de,general;transcription;translation;proofreading;,10.00,15.00,Sun May 31 2015 14:51:29 GMT+0200 (CEST),Tue Aug 18 2015 14:12:07 GMT+0200 (CEST), , ,,Tue Aug 18 2015 14:04:11 GMT+0200 (CEST),private,
2BcgKZHRuvxDad59p,dilammerts@gmail.com,Diana,Lammerts,en,general;research;transcription;translation;proofreading;writing;photo-editing;video-creation;marketing-copy;ebook-cover-creation;,10,20.00,Tue Jan 27 2015 16:21:31 GMT+0100 (CET),Tue Mar 31 2015 19:49:07 GMT+0200 (CEST),PA, ,,undefined,private,
2ujqysM65sykF33K5,vero.kadanka@gmail.com,Veronika,Kadanka,de,,0,0,Wed Apr 15 2015 12:48:33 GMT+0200 (CEST),Wed Apr 15 2015 13:10:49 GMT+0200 (CEST), , ,,,private,
6R6PcrCW8EQiq2Xox,brainard_ardona@yahoo.com,Brainard,Ardoña,en,,0,0,Wed Aug 19 2015 12:41:13 GMT+0200 (CEST),Thu Aug 20 2015 15:04:37 GMT+0200 (CEST), , ,,,private,
8wqmuNYaXMvND8avZ,dieschoenies@outlook.de,Dickerson-schön ,Bianca ,de,,0,0,Mon Jun 08 2015 13:11:40 GMT+0200 (CEST),Wed Jul 22 2015 08:36:26 GMT+0200 (CEST), , ,,,private,
B8R3SsptJnJz7TvQg,matic.cerin@gmail.com,Matic,Cerin,en,,0,0,Tue Apr 21 2015 15:44:04 GMT+0200 (CEST),Thu Jul 23 2015 17:21:38 GMT+0200 (CEST), , ,,,private,
Cd3CcWPdzM7TM8YZy,anika.weidner@googlemail.com,Anika,Weidner,de,,10.00,15.00,Fri Jun 12 2015 10:31:28 GMT+0200 (CEST),Tue Jun 23 2015 15:18:46 GMT+0200 (CEST), , ,,Wed Jun 17 2015 13:01:28 GMT+0200 (CEST),private,
BZCqZckjTeSYPWqad,morticia.pace@gmail.com,Morticia,Crone,en,,0,0,Mon Jun 29 2015 15:07:24 GMT+0200 (CEST),Mon Aug 17 2015 14:56:42 GMT+0200 (CEST), , ,,Fri Jul 03 2015 19:35:15 GMT+0200 (CEST),private,
CgYyDzGHRAsRbJf4s,a.schneppe@schneppe-online.de,Andreas,Schneppe,de,,0,0,Sun Jun 07 2015 12:36:30 GMT+0200 (CEST),Sun Jun 07 2015 19:17:08 GMT+0200 (CEST), , ,,,corporate,Andreas Schneppe,Deutschland,Sollstedt,99759,Karl-Liebknecht-Str. 9d,DE274192002,
Eb525WJmKveawq82Y,anim@yeboah.org,Anim,null,undefined,general;research;transcription;translation;social media;writing;proofreading;,10.00,20.00,Tue Dec 09 2014 17:05:03 GMT+0100 (CET),, , ,,,private,
3XAWqMRitk4XKQBTr,sandrabaumeister@hotmail.de,Sandra,Baumeister,de,,0,0,Tue Jun 16 2015 14:47:27 GMT+0200 (CEST),Tue Jun 23 2015 20:54:52 GMT+0200 (CEST), , ,,,private,
FuM48FgfWQ8tQc52J,ricardabruns83@gmx.net,Ricarda,Bruns,de,,0,0,Thu Jun 04 2015 15:15:30 GMT+0200 (CEST),Tue Jun 16 2015 20:07:56 GMT+0200 (CEST), , ,,,private,
EcPz2fkf3oTJb3zZs,roman.kornfeld@aon.at,Roman,Kornfeld,de,general;research;transcription;writing;photo-editing;ebook-cover-creation;allesmarketing-produkt-cover;allesmarketing-header-grafik;allesmarketing-logo;allesmarketing-freebie-cover;,10.00,20.00,Sat Apr 11 2015 11:54:10 GMT+0200 (CEST),Mon Aug 10 2015 09:41:58 GMT+0200 (CEST), , ,,Sun Jun 14 2015 14:45:42 GMT+0200 (CEST),private,
54Sp7TiFqrcFFLQ53,cornelia.wallisch@gmail.com,Cornelia,Wallisch,de,,10.00,20.00,Wed Apr 08 2015 22:26:37 GMT+0200 (CEST),Fri Jul 17 2015 23:01:20 GMT+0200 (CEST), , ,,,private,
3n8eYv9qDcQ7tLTwx,polster.christine@gmail.com,Christine ,Polster,de,,0,0,Thu Aug 06 2015 01:11:02 GMT+0200 (CEST),Thu Aug 20 2015 01:22:24 GMT+0200 (CEST), , ,,Thu Aug 20 2015 00:56:38 GMT+0200 (CEST),private,
GKoLyfigWtd2vHpe3,laubenstein.sina@gmail.com,Sina,Laubenstein,de,,0,0,Thu Jun 18 2015 13:13:48 GMT+0200 (CEST),Wed Aug 19 2015 19:53:36 GMT+0200 (CEST), , ,,Sun Jun 28 2015 13:41:55 GMT+0200 (CEST),private,
3g9WyG5ZqygjjrfBa,walentina.unruh@gmail.com,Walentina,Unruh,de,,0,0,Wed May 27 2015 17:49:44 GMT+0200 (CEST),Fri May 29 2015 18:01:51 GMT+0200 (CEST), , ,,,private,
5MdNsDh2uX8XAfvf9,frederic.wichert@gmail.com,Frederic,Wichert,en,,10.00,20.00,Sat May 23 2015 20:38:20 GMT+0200 (CEST),Fri Jul 10 2015 00:22:06 GMT+0200 (CEST), , ,,Tue May 26 2015 18:44:58 GMT+0200 (CEST),private,
6HnBjRuGGAmd7oSkR,kparris10@gmail.com,Kriston,Parris,en,general;transcription;,8.50,12.00,Fri May 29 2015 18:51:23 GMT+0200 (CEST),Fri Aug 21 2015 08:39:26 GMT+0200 (CEST), , ,,Fri Jul 31 2015 20:51:44 GMT+0200 (CEST),private,
6FoWfPAaRaKh9KtrA,mona.pfeifer@schreibbuero-pfeifer.de,Mona,Pfeifer,de,,10.00,15.00,Thu Jun 04 2015 15:19:48 GMT+0200 (CEST),Thu Jun 11 2015 14:46:39 GMT+0200 (CEST), , ,,Fri Jun 05 2015 13:51:59 GMT+0200 (CEST),corporate,
8679c5rX5xrwtm2T5,aisha.lapitz@gmail.com,Aisha,Lapitz,de,,0,0,Tue Apr 07 2015 19:39:46 GMT+0200 (CEST),Tue Apr 07 2015 20:06:11 GMT+0200 (CEST), , ,,,private,
AC6L95mNRue4iTMFx,fuellfeder@edv-technik.at,Maria,Blasnig,de,general;research;transcription;proofreading;,10.00,10.00,Mon Feb 23 2015 12:13:53 GMT+0100 (CET),Mon Jun 29 2015 16:55:56 GMT+0200 (CEST), , ,,undefined,private,
5c4KdyvDhhen35Dkb,ettie.kiene@t-online.de,Ettie,Kiene,de,,0,0,Sat May 23 2015 13:03:23 GMT+0200 (CEST),Sat May 23 2015 13:16:54 GMT+0200 (CEST), , ,,,corporate,
BautjeotmAgqSj5wC,mcomp@web.de,Michael,Lüdemann,de,general;,0,0,Tue Mar 17 2015 05:07:32 GMT+0100 (CET),Wed May 20 2015 14:41:46 GMT+0200 (CEST), , ,,,private,
8Z9b2CaT36oJRF9MT,belinda.johann@effektivoffice.de,Belinda,Johann,de,general;transcription;,10.00,15.00,Tue Jun 16 2015 15:54:27 GMT+0200 (CEST),Fri Aug 21 2015 11:32:24 GMT+0200 (CEST), , ,,Wed Aug 19 2015 15:12:45 GMT+0200 (CEST),corporate,effektivoffice,Deutschland,Extertal,32699,Finkenweg 10,null,
ALjvt5THPeyKBKxSY,m.guenther7@gmail.com,Martin,Günther,de,general;photo-editing;ebook-cover-creation;allesmarketing-produkt-cover;allesmarketing-header-grafik;allesmarketing-logo;allesmarketing-freebie-cover;,10.00,15.00,Tue May 19 2015 15:30:00 GMT+0200 (CEST),Wed Jun 24 2015 09:57:14 GMT+0200 (CEST), , ,,,corporate,MG Mediaservices   Martin Günther  Einzelunternehmen,Österreich,Wien,1070,Siebensterngasse 1/14,ATU55972004,
6MBcPv53ADu6etC7J,lupercalia.lg@gmail.com,Lucia,Gerharz,de,general;research;transcription;translation;proofreading;writing;,10.00,15.00,Tue Apr 21 2015 15:28:21 GMT+0200 (CEST),Fri Aug 14 2015 14:20:19 GMT+0200 (CEST), , ,Moderator,Tue Jul 28 2015 22:35:35 GMT+0200 (CEST),private,
8joWPzQLBQLvQAF6T,info@pixevo.de,Brigitte,Leusder,de,,0,0,Mon Jun 22 2015 14:49:49 GMT+0200 (CEST),Tue Jun 23 2015 15:46:01 GMT+0200 (CEST), , ,,,private,
ARnibsaAgj3NuTWoj,bracht01@outlook.com,Saskia,Bracht,de,general;research;translation;,10.00,15.00,Wed Jun 03 2015 13:25:51 GMT+0200 (CEST),Sun Jun 14 2015 21:25:35 GMT+0200 (CEST), , ,,undefined,private,
BcMP5zKqtjzuDupbo,bmsmaiwald@t-online.de,Silke,Maiwald,de,general;research;transcription;proofreading;writing;,10.00,15.00,Thu Jun 04 2015 18:31:00 GMT+0200 (CEST),Thu Jun 11 2015 12:01:20 GMT+0200 (CEST), , ,,Sat Jun 06 2015 16:26:18 GMT+0200 (CEST),corporate,BMS Büromanagement-Service Andreas Maiwald,Deutschland,Jesteburg,21266,Ilksbergring 25,DE214498841,
C3JJBsrsetHJkQE3w,gabriel.taskwunder@gmail.com,Gabriel,Schoeneich,de,general;research;transcription;translation;proofreading;writing;project-management;,10.00,20.00,Wed Apr 08 2015 15:27:55 GMT+0200 (CEST),Thu Aug 20 2015 12:33:20 GMT+0200 (CEST),PA,PM,,Sun Aug 02 2015 13:38:23 GMT+0200 (CEST),private,
D5zs3dtFMxmSrnwon,claudia.konopka@web.de,Claudia,Konopka,de,,10.00,15.00,Wed May 20 2015 10:19:12 GMT+0200 (CEST),Thu Aug 13 2015 14:02:16 GMT+0200 (CEST), , ,,Fri May 22 2015 13:45:13 GMT+0200 (CEST),private,
FMjYnDkcj6KwDskrK,info@deversi.de,Monja,Deversi,de,general;research;transcription;writing;customer-support;,10.00,20.00,Tue May 05 2015 16:07:32 GMT+0200 (CEST),Fri Aug 21 2015 09:32:27 GMT+0200 (CEST),PA, ,,Thu Jun 04 2015 20:01:35 GMT+0200 (CEST),private,
D5rweY4FDbEy3exca,benjamin.bayer@gmx.at,Benjamin,Bayer,null,,0,0,Tue Aug 18 2015 21:30:49 GMT+0200 (CEST),Wed Aug 19 2015 16:20:05 GMT+0200 (CEST), , ,,,private,
FGd5pMft7vFWXSoa9,z.khamisa@web.de,Zainab,Khamisa-Eggers,de,,0,0,Tue Jun 30 2015 17:20:52 GMT+0200 (CEST),Thu Aug 20 2015 17:53:48 GMT+0200 (CEST), , ,,Wed Jul 15 2015 16:19:15 GMT+0200 (CEST),private,
GLTXeQGgJW6D3d6MB,udoventker@aol.com,Udo,Ventker,de,general;research;transcription;translation;proofreading;writing;photo-editing;customer-support;ebook-creationg;ebook-cover-creation;allesmarketing-produkt-cover;allesmarketing-header-grafik;allesmarketing-logo;allesmarketing-freebie-cover;,10.00,20.00,Tue Feb 10 2015 11:03:00 GMT+0100 (CET),Fri Aug 21 2015 13:37:17 GMT+0200 (CEST),PA, ,Moderator,Fri Aug 21 2015 10:44:42 GMT+0200 (CEST),private,
J6NDKPmtGsQxrenpv,sadmanisback1o1@gmail.com,Waseem,Butt,en,,0,0,Fri May 29 2015 01:46:59 GMT+0200 (CEST),Fri May 29 2015 18:15:45 GMT+0200 (CEST), , ,,,private,
LQxDYDojd7K6MXWXJ,sarah-mue87@web.de,Sarah ,Mueller,de,,0,0,Fri Jun 05 2015 15:07:07 GMT+0200 (CEST),Fri Jun 05 2015 15:08:46 GMT+0200 (CEST), , ,,,private,
MmDS38MFW6cdSiMNN,vcurtisjobs@gmail.com,Virginia ,Curtis,undefined,writing;marketing-copy;,8.00,15.00,Fri Mar 27 2015 21:04:58 GMT+0100 (CET),Fri Mar 27 2015 21:23:21 GMT+0100 (CET), , ,,,private,
NntgKBxqgfZbTmdbH,schuster_antonia@hotmail.de,Antonia,Schuster,de,general;research;transcription;translation;proofreading;writing;,10.00,20.00,Mon May 11 2015 10:46:29 GMT+0200 (CEST),Mon Jun 22 2015 15:58:14 GMT+0200 (CEST), , ,,Thu May 28 2015 12:02:12 GMT+0200 (CEST),private,
QZPoPJFyZRncp42ME,svenja90@gmx.de,Svenja,Pahmeier,de,general;research;transcription;translation;writing;photo-editing;email-marketing;customer-support;ebook-creationg;ebook-cover-creation;allesmarketing-produkt-cover;allesmarketing-header-grafik;allesmarketing-logo;allesmarketing-freebie-cover;,10.00,15.00,Tue Feb 17 2015 01:08:53 GMT+0100 (CET),Fri Aug 21 2015 13:27:34 GMT+0200 (CEST),PA, ,Moderator,Fri Aug 21 2015 13:28:07 GMT+0200 (CEST),private,
SAXC2M263bbffCA3s,marlene.ungerhofer@gmail.com,Stefan,Ungerhofer,de,general;research;transcription;translation;proofreading;writing;,10.00,20.00,Tue Apr 14 2015 21:20:57 GMT+0200 (CEST),Fri Aug 21 2015 13:03:16 GMT+0200 (CEST), , ,,Thu Jul 16 2015 14:07:35 GMT+0200 (CEST),private,
HkMjhD2zD6kghXwsZ,matthiskattnig@gmx.at,Matthis,Kattnig,de,general;research;translation;proofreading;writing;photo-editing;ebook-cover-creation;allesmarketing-produkt-cover;allesmarketing-header-grafik;allesmarketing-logo;allesmarketing-freebie-cover;,10.00,20.00,Wed Apr 15 2015 13:10:15 GMT+0200 (CEST),Fri Aug 21 2015 13:10:27 GMT+0200 (CEST),PA, ,Moderator,undefined,private,
JayobPRD4hHExneP4,sylvia.hunsicker@gmx.de,Sylvia,Hunsicker,de,general;research;transcription;translation;proofreading;writing;social-media-marketing;,10.00,20.00,Fri May 15 2015 19:47:46 GMT+0200 (CEST),Tue Aug 18 2015 21:13:55 GMT+0200 (CEST), , ,,Fri Jun 12 2015 12:20:17 GMT+0200 (CEST),private,
MYSpe7YtDasmrWLxr,c.hentschel@sprachdienst-leipzig.de,Cornelia,Hentschel,de,,0,0,Thu Jun 04 2015 14:57:05 GMT+0200 (CEST),Wed Jul 01 2015 13:33:40 GMT+0200 (CEST), , ,,Fri Jun 19 2015 11:16:19 GMT+0200 (CEST),private,
NLeNDaoeYEb2cjJpf,stefualbert1@gmail.com,Stefu,Albert,en,photo-editing;video-creation;ebook-cover-creation;,8.00,15.00,Sun Feb 22 2015 20:46:49 GMT+0100 (CET),Sun Jul 26 2015 17:39:15 GMT+0200 (CEST), , ,,Fri Apr 24 2015 15:09:40 GMT+0200 (CEST),private,
PkrJXZBKDoBtiP4qw,info@asunderground.de,Alexander,de Ahsbahs,de,wordpress;,10.00,20.00,Wed Feb 18 2015 23:20:08 GMT+0100 (CET),Thu Jun 18 2015 17:50:09 GMT+0200 (CEST), , ,,,private,
REAeZRvRGsSHMdGuw,sabrina.rohde@gmx.net,Sabrina,Rohde,null,,0,0,Mon Jul 13 2015 15:03:55 GMT+0200 (CEST),Thu Aug 06 2015 08:49:22 GMT+0200 (CEST), , ,,,private,
SnhAgrrbY3gXhXsEZ,info@andiamo-sprachservice.de,Heidrun,Weinmann,de,general;research;transcription;translation;proofreading;writing;telesales;,10.00,20.00,Sat Apr 18 2015 21:52:48 GMT+0200 (CEST),Wed Jul 08 2015 17:19:58 GMT+0200 (CEST), , ,,,private,
WxizzCuZHWu68aXBW,michelle.carpio.frey@gmail.com,Michelle,Frey,de,general;research;transcription;translation;proofreading;writing;,10.00,10.00,Thu Feb 19 2015 11:28:55 GMT+0100 (CET),Fri Aug 21 2015 13:27:39 GMT+0200 (CEST), , ,,Thu Jul 30 2015 08:04:29 GMT+0200 (CEST),private,
XngYaKM5DizzcQMGC,carmen@virtuelleassistenten.eu,Carmen,Wille,de,general;research;transcription;translation;proofreading;writing;customer-support;,3.89,3.89,Wed Dec 03 2014 19:39:10 GMT+0100 (CET),Fri Aug 21 2015 14:04:06 GMT+0200 (CEST),PA, ,Moderator,Wed Aug 19 2015 12:52:57 GMT+0200 (CEST),private,
ZyXRv9SkuJv3YPv7o,indira-2008p@hotmail.com,Indira,Prasovic,en,,0,0,Wed Jun 17 2015 01:44:51 GMT+0200 (CEST),Thu Jun 25 2015 23:00:53 GMT+0200 (CEST), , ,,,private,
bPp5JFvyFM5tpudCC,medhos-office@web.de,Claudia-Patricia,Hamar,de,general;research;transcription;translation;proofreading;writing;customer-support;telesales;marketing-copy;ebook-creationg;,10.00,10.00,Wed Feb 18 2015 12:54:14 GMT+0100 (CET),Fri Aug 21 2015 08:51:47 GMT+0200 (CEST),PA, ,,Thu Aug 20 2015 13:24:44 GMT+0200 (CEST),private,
cqh6zcsn5MGXqxkbT,tanjaplz29@gmail.com,Tanja,Pölz,de,general;research;proofreading;writing;,10.00,15.00,Wed May 27 2015 18:20:46 GMT+0200 (CEST),Thu Aug 20 2015 20:36:05 GMT+0200 (CEST), , ,,undefined,private,
dr8FCiTWp62J9sEot,marcella.kutil@gmail.com,Marcella,Kutil,de,,0,0,Wed Apr 08 2015 18:32:53 GMT+0200 (CEST),Sat Apr 25 2015 13:00:13 GMT+0200 (CEST), , ,,,private,
ffL6ZBrWC4zTfwZR2,k.sesel@taskwunder.com,Klemen,Sesel,de,project-management;project;,0.00,0.00,Thu Dec 11 2014 10:35:18 GMT+0100 (CET),Thu Aug 13 2015 10:37:35 GMT+0200 (CEST),PA,PM,Moderator,Thu Aug 13 2015 10:38:10 GMT+0200 (CEST),private,
HnsRiS6AnvPNLAXPr,norbertlamers@web.de,Norbert ,Lamers,de,general;writing;,10.00,20.00,Tue Mar 17 2015 14:45:53 GMT+0100 (CET),Mon Jun 01 2015 13:17:33 GMT+0200 (CEST), , ,,Wed Apr 08 2015 15:58:46 GMT+0200 (CEST),private,
KZhMBPMB3zSqqodX6,familiesuenwoldt@web.de,Carolin,S.,de,general;transcription;,10.00,15.00,Tue May 26 2015 13:14:58 GMT+0200 (CEST),Sat Jul 04 2015 21:48:11 GMT+0200 (CEST), , ,,,private,
MdK2u6ceCgZnQkq6D,schreibliesel@web.de,Reinmöller,Kirsten,de,general;research;transcription;proofreading;writing;,10.00,15.00,Tue May 19 2015 15:09:09 GMT+0200 (CEST),Fri Aug 21 2015 08:45:15 GMT+0200 (CEST), , ,,Wed Aug 19 2015 22:04:05 GMT+0200 (CEST),corporate,Die Schreibliesel,Deuitschalnd,Bad Salzuflen,32108,Cäcilienstraße 2a,null,
NMognRSAhyXru3rw3,elle.anorma@gmail.com,Elle,Anorma,undefined,,10,10.00,Tue Feb 03 2015 18:41:53 GMT+0100 (CET),,PA, ,,,private,
PydXpJB9GXit4ip45,chris.taskwunder@gmail.com,Christopher,Kison,en,,0,0,Sat Jun 13 2015 05:39:59 GMT+0200 (CEST),Wed Jun 24 2015 03:37:43 GMT+0200 (CEST), , ,,,private,
S35gpog7zXBq7xtZ3,aunseld@aol.com,Andrea,Unseld,de,general;transcription;proofreading;writing;,10.00,15.00,Thu Jun 04 2015 15:31:46 GMT+0200 (CEST),Fri Aug 21 2015 09:33:54 GMT+0200 (CEST), , ,,Tue Jul 21 2015 12:59:44 GMT+0200 (CEST),private,
ThypHevvLuvbfdnvH,rowena1304@aol.com,Rowena,Liersch,de,,0,0,Thu Jun 04 2015 14:34:12 GMT+0200 (CEST),Mon Jun 08 2015 19:40:54 GMT+0200 (CEST), , ,,Sat Jun 13 2015 19:05:03 GMT+0200 (CEST),private,
h8zyXK2xtawrr66g2,npopovic@globalnet.hr,Nikola,Popović,en,general;photo-editing;video-creation;ebook-cover-creation;allesmarketing-produkt-cover;allesmarketing-header-grafik;allesmarketing-logo;allesmarketing-freebie-cover;,10.00,18.00,Tue Feb 17 2015 09:14:56 GMT+0100 (CET),Fri Aug 21 2015 10:09:04 GMT+0200 (CEST), , ,,Fri Aug 21 2015 09:52:31 GMT+0200 (CEST),private,
iBiDRMZuhpB99QaHq,seidensticker.ds@gmail.com,Dennis,Seidensticker,de,photo-editing;project-management;allesmarketing-produkt-cover;allesmarketing-header-grafik;allesmarketing-logo;allesmarketing-freebie-cover;banner-set;webdesign;,10.00,20.00,Mon May 11 2015 14:28:45 GMT+0200 (CEST),Fri Aug 14 2015 19:25:14 GMT+0200 (CEST), ,PM,,Thu Jul 30 2015 07:59:13 GMT+0200 (CEST),private,
kEgdRScPRnmm963vE,sciutonoemi@gmail.com,Noemi ,Sciuto,it,,10.00,20.00,Tue Mar 31 2015 16:25:07 GMT+0200 (CEST),Tue Mar 31 2015 16:25:58 GMT+0200 (CEST), , ,,,private,
mKdqxJ6KaPXdHxYYG,schreibservice@aon.at,Nicole,Panholzer,de,general;research;transcription;proofreading;,10.00,10.00,Mon Feb 23 2015 13:02:29 GMT+0100 (CET),Fri Aug 21 2015 13:35:37 GMT+0200 (CEST), , ,,Thu Jul 30 2015 17:14:36 GMT+0200 (CEST),private,
oLzFFdhMqf8nuq7FK,eddiemukaye@gmail.com,Edwin,Mukaye,en,general;transcription;proofreading;,0,0,Sun Mar 01 2015 09:12:10 GMT+0100 (CET),Tue May 19 2015 12:43:18 GMT+0200 (CEST), , ,,undefined,private,
pAMmvfng7ZMyi78n4,e.coccaro@taskwunder.com,Elena,Coccaro,en,general;research;transcription;translation;proofreading;writing;marketing-copy;,6.06,6.06,Fri Jan 09 2015 18:43:19 GMT+0100 (CET),Mon May 04 2015 14:07:32 GMT+0200 (CEST),PA, ,,Wed Apr 08 2015 12:14:28 GMT+0200 (CEST),private,
qGT8HSiiy3Av7BgL8,mjeremijic@gmail.com,Marija,Jeremijic,en,transcription;,8.33,15.00,Fri May 29 2015 01:34:08 GMT+0200 (CEST),Sun Aug 02 2015 05:49:37 GMT+0200 (CEST), , ,,Mon Jun 08 2015 20:54:17 GMT+0200 (CEST),private,
ruq9bpCyanQQqWxJD,info@messerertranslations.com,Claudia,Messerer,de,,0,0,Fri Apr 10 2015 15:42:32 GMT+0200 (CEST),Sat Apr 11 2015 11:25:01 GMT+0200 (CEST), , ,,,private,
v4zQqSbpjE96t7m4Z,xrichtermarcox@gmail.com,Marco,Richter,de,,0,0,Wed Apr 15 2015 16:19:58 GMT+0200 (CEST),Sat Apr 18 2015 01:46:03 GMT+0200 (CEST), , ,,,private,
wPTpYAY289KzevGJf,konstanze.winzer@gmx.de,Konstanze,Winzer,de,general;research;transcription;,10.00,15.00,Tue Jun 09 2015 12:24:16 GMT+0200 (CEST),Thu Aug 20 2015 17:42:28 GMT+0200 (CEST), , ,,Sun Aug 16 2015 15:56:59 GMT+0200 (CEST),private,
xFtmYhfLLP8DQjFLj,adnosk@gmail.com,Adam,Novák,undefined,,0,0,Fri Feb 27 2015 00:13:20 GMT+0100 (CET),Thu Mar 05 2015 22:23:52 GMT+0100 (CET), , ,,,private,
yb5Nt4BDGt6EphgNN,karin.puffer@gmail.com,Karin,Puffer,de,general;research;transcription;proofreading;writing;,10.00,20.00,Wed Apr 08 2015 17:25:40 GMT+0200 (CEST),Mon Aug 17 2015 09:57:18 GMT+0200 (CEST), , ,,Thu May 21 2015 14:09:17 GMT+0200 (CEST),private,
X6GegYBw2NYLpkvmK,ego@inarcadia.de,Petra,Stegmann,de,general;research;transcription;translation;proofreading;writing;email-marketing;,10.00,12.00,Mon Jan 19 2015 10:57:16 GMT+0100 (CET),Thu Aug 20 2015 19:16:54 GMT+0200 (CEST), , ,,Thu Aug 20 2015 14:35:36 GMT+0200 (CEST),private,
YchzE7dJtfx38392W,dagmar@hemera-cc.de,Dagmar,Schulz-Grefe,de,,0,0,Tue May 05 2015 11:24:15 GMT+0200 (CEST),Thu Jun 25 2015 09:42:46 GMT+0200 (CEST), , ,,undefined,private,
a53BKjN5oEWXnyQaR,marlena.apel@web.de,Marlena,Apel,de,,10,15.00,Wed Jan 28 2015 15:03:51 GMT+0100 (CET),Sun Aug 02 2015 18:11:44 GMT+0200 (CEST), , ,,Sat Jun 13 2015 11:55:45 GMT+0200 (CEST),private,
bR4LKazN2YJ4L3jis,johnmarcus@gmail.com,John,Marcus,en,general;research;writing;,10.00,20.00,Fri Mar 06 2015 10:46:07 GMT+0100 (CET),Wed Aug 19 2015 17:41:39 GMT+0200 (CEST), , ,,Fri Jun 26 2015 18:21:38 GMT+0200 (CEST),private,
czJzYtos2xtWgjAG7,mock24@hotmail.com,Gregory,Mock,en,general;transcription;proofreading;,10.00,0,Thu Jun 04 2015 16:22:40 GMT+0200 (CEST),Thu Aug 06 2015 10:26:37 GMT+0200 (CEST), , ,,Sat Jun 06 2015 15:24:12 GMT+0200 (CEST),private,
eSwK8GQKfYGcN4Z2o,sperl.jakob@gmail.com,Jakob ,Sperl,null,photo-editing;,10.00,20.00,Thu Aug 06 2015 17:33:05 GMT+0200 (CEST),Thu Aug 20 2015 18:34:44 GMT+0200 (CEST), , ,,undefined,private,
fnGzxW6vTKyHTvpF2,andreas.sitzwohl@gmail.com,Andreas,Sitzwohl,de,general;research;writing;,10.00,15.00,Wed May 06 2015 09:49:49 GMT+0200 (CEST),Wed Aug 19 2015 10:29:22 GMT+0200 (CEST), , ,,Thu Jul 30 2015 10:54:36 GMT+0200 (CEST),private,
hRrsXiPH9FqbZYPyi,schreib-service@gmx.at,Gerlinde,Wenzel,de,,10.00,10.00,Mon Feb 23 2015 12:42:42 GMT+0100 (CET),Sun May 17 2015 11:15:50 GMT+0200 (CEST), , ,,undefined,private,
img5m8fnJbJ5QJLCF,straif.janina@gmail.com,Janina,Straif,de,,10.00,15.00,Mon Mar 30 2015 19:01:41 GMT+0200 (CEST),Mon Mar 30 2015 19:02:17 GMT+0200 (CEST), , ,,,private,
kGBT9HxKX66h2z3Gr,johanna.karpe@googlemail.com,Johanna,Mock,de,general;research;transcription;translation;proofreading;writing;,10.00,20.00,Thu Jun 25 2015 18:36:18 GMT+0200 (CEST),Tue Aug 18 2015 16:27:23 GMT+0200 (CEST),PA, ,,Fri Jul 31 2015 22:43:46 GMT+0200 (CEST),private,
nYAdqfktuXe8QsGt8,stefan-hagen@gmx.at,Stefan,Hagen,de,transcription;proofreading;,10.00,12.00,Tue Mar 31 2015 13:31:01 GMT+0200 (CEST),Sun Aug 16 2015 04:47:04 GMT+0200 (CEST), , ,,Mon Jul 06 2015 22:24:24 GMT+0200 (CEST),private,
oRxzDsitq53sFZZdD,susanne-78@gmx.de,Susanne,Frey,de,general;research;transcription;proofreading;writing;,0,0,Thu May 21 2015 15:53:25 GMT+0200 (CEST),Thu Aug 20 2015 19:15:53 GMT+0200 (CEST), , ,,Mon Jul 20 2015 21:30:38 GMT+0200 (CEST),private,
pDQAGo8nFpgqE3XSj,info@advertiseagents.com,Domenik,Otte,de,,10.00,20.00,Fri May 22 2015 17:15:37 GMT+0200 (CEST),Fri Aug 21 2015 10:13:57 GMT+0200 (CEST), , ,,Thu Jul 09 2015 10:52:36 GMT+0200 (CEST),corporate,Advertiseagents ( Einzelunternehmen ),Deutschland,Katzwinkel,57581,Sonnenweg 6,null,
qjCCgRB7A6KRyKNY2,corinna.laimer@yahoo.de,Corinna,Laimer,de,,0,0,Wed Jul 29 2015 13:29:56 GMT+0200 (CEST),Mon Aug 17 2015 17:58:30 GMT+0200 (CEST), , ,,,private,
tQfEvBLqFmFTHSMry,bjoern.gerstenberger@web.de,Björn,Gerstenberger,de,,0,0,Thu Jun 18 2015 15:15:38 GMT+0200 (CEST),Sat Jul 25 2015 23:39:10 GMT+0200 (CEST), , ,,Tue Jul 14 2015 17:54:08 GMT+0200 (CEST),private,
vLPpuDZ3FwLJYxGTR,ritter.lilly@hotmail.de,Lidia,Ritter,de,,0,0,Thu Aug 06 2015 09:49:08 GMT+0200 (CEST),Thu Aug 06 2015 09:49:25 GMT+0200 (CEST), , ,,undefined,private,
wPyKTSe8dxdjGBGb8,mia.finner@gmail.com,Maria,Finner,de,,0,0,Wed Apr 08 2015 12:12:04 GMT+0200 (CEST),Tue Apr 28 2015 12:07:01 GMT+0200 (CEST), , ,,,private,
xPw2eagEopP9Cn2EW,elke-stuermer@web.de,Elke ,Stürmer,de,,0,0,Tue Jun 16 2015 09:53:44 GMT+0200 (CEST),Fri Jul 24 2015 23:08:06 GMT+0200 (CEST), , ,,Mon Jun 22 2015 07:13:09 GMT+0200 (CEST),corporate,
yf5dAYTGpgpXj34uZ,chef@danzigunfried.com,Ernst,Grabovszki,de,,10.00,20.00,Tue Apr 14 2015 02:05:31 GMT+0200 (CEST),Fri Aug 14 2015 11:48:16 GMT+0200 (CEST), , ,,Wed Jul 15 2015 01:09:11 GMT+0200 (CEST),corporate,danzig & unfried,Österreich,Wien,1030,Kölblgasse 18/11,ATU63891603,
TzceMt2H8PPeWSihp,otterwetter@googlemail.com,Ralph,Hoppe,de,general;transcription;,10.00,15.00,Mon May 11 2015 15:15:48 GMT+0200 (CEST),Mon Aug 10 2015 16:32:36 GMT+0200 (CEST), , ,,Sat Aug 01 2015 03:37:52 GMT+0200 (CEST),private,
XJskArNJ3f98ayA3o,c.geisser@gmx.net,Clemens,Geißer,en,,10.00,20.00,Thu Apr 02 2015 15:03:50 GMT+0200 (CEST),Fri May 08 2015 19:09:06 GMT+0200 (CEST), , ,,Sun May 03 2015 17:02:13 GMT+0200 (CEST),private,
YqDWgrHqKf7cH2tDh,edith.cambon@gmx.de,Edith,Cambon,de,general;translation;,10.00,20.00,Mon Apr 13 2015 10:49:12 GMT+0200 (CEST),Thu Aug 13 2015 19:55:40 GMT+0200 (CEST), , ,,Tue Jun 16 2015 19:06:49 GMT+0200 (CEST),private,
ax8hTkZyRxPEqk8Ee,marie.flauger@web.de,Marie,Flauger,de,general;transcription;,0,0,Thu May 21 2015 14:07:08 GMT+0200 (CEST),Wed Aug 12 2015 23:17:09 GMT+0200 (CEST), , ,,,private,
c2DoDYYhikFLr2imh,grule@gmx.at,Leonhard,Grutschnig,de,,0,0,Mon Jun 29 2015 22:25:45 GMT+0200 (CEST),Wed Jul 22 2015 12:45:38 GMT+0200 (CEST), , ,,Thu Jul 09 2015 17:39:26 GMT+0200 (CEST),private,
d3WPtskEAr9fP3cF7,kenyanantony@gmail.com,Antony ,Wanjiru,en,,6.60,10.00,Thu Aug 13 2015 18:25:39 GMT+0200 (CEST),Thu Aug 20 2015 16:37:28 GMT+0200 (CEST), , ,,Wed Aug 19 2015 16:10:28 GMT+0200 (CEST),private,
eyiJu3bLacGcdppTL,d.orgler@taskwunder.com,Daniel,Orgler,de,general;research;transcription;translation;proofreading;writing;search-engine-marketing;social-media-marketing;,0.00,0.00,Tue Feb 17 2015 22:45:20 GMT+0100 (CET),Tue Aug 18 2015 16:30:45 GMT+0200 (CEST),PA, ,Moderator,Mon Aug 17 2015 12:44:23 GMT+0200 (CEST),private,
gkELLBAwYP6wPZBv2,bayerl.darian@gmail.com,Darian,Bayerl,de,,0,0,Mon Apr 20 2015 15:12:08 GMT+0200 (CEST),Tue Apr 28 2015 13:44:38 GMT+0200 (CEST), , ,,,private,
hXsTrd7EkoFwebhLa,malditang_vampira@yahoo.com,Irish Gay,Orte,en,research;,5.00,10.00,Fri Jun 05 2015 12:30:32 GMT+0200 (CEST),Tue Jun 16 2015 00:55:45 GMT+0200 (CEST), , ,,,private,
jxNF3tdoWtALktpb9,ulrike.mielcarek@hotmail.de,Ulrike,Mielcarek,de,general;transcription;,10.00,15.00,Tue Jun 16 2015 20:29:49 GMT+0200 (CEST),Thu Aug 20 2015 15:54:40 GMT+0200 (CEST), , ,,Sat Aug 15 2015 12:07:04 GMT+0200 (CEST),private,
kdfLGSLemS5nYGGGn,abachorikova@gmail.com,Adriana,Bachorikova,undefined,general;research;customer-support;,8.00,12.00,Mon Jan 26 2015 19:53:40 GMT+0100 (CET),, , ,,,private,
ne4LB8wadYyvKc9oL,andrea.buesser88@gmail.com,Andrea,Büsser,de,general;research;transcription;translation;proofreading;writing;,10.00,20.00,Thu May 07 2015 07:55:51 GMT+0200 (CEST),Wed Aug 12 2015 14:55:33 GMT+0200 (CEST), , ,,Sun Jun 14 2015 09:06:07 GMT+0200 (CEST),private,
oSNsp3tyTonmwnYg4,rico@kommune38.de,Wirunyupa,Belane,undefined,general;research;translation;proofreading;writing;wordpress;photo-editing;video-creation;search-engine-optimization;search-engine-marketing;social-media-marketing;email-marketing;customer-support;telesales;marketing-copy;ebook-creationg;ebook-cover-creation;,10.00,20.00,Sun Feb 22 2015 15:49:49 GMT+0100 (CET),Wed Mar 04 2015 12:19:56 GMT+0100 (CET), , ,,undefined,private,
pRzpbndb7XfYXrQSj,lilli_v_g@gmx.de,Lilian,von Grafenstein ,de,general;transcription;,0,0,Thu May 21 2015 14:25:03 GMT+0200 (CEST),Mon Jun 01 2015 11:02:28 GMT+0200 (CEST), , ,,,private,
qr5yny6zne5us6FKx,s.weigelhofer@taskwunder.com,Stefan,Weigellhofer,de,,0,0,Mon Mar 23 2015 15:40:06 GMT+0100 (CET),Thu Aug 20 2015 13:46:58 GMT+0200 (CEST),PA, ,Moderator,,private,
H9TPxDiv9JWvvL2aR,thomas.ralf.hain@gmail.com,Thomas,Hain,de,general;research;transcription;translation;proofreading;writing;wordpress;photo-editing;video-creation;search-engine-optimization;search-engine-marketing;social-media-marketing;email-marketing;customer-support;telesales;marketing-copy;ebook-creationg;ebook-cover-creation;allesmarketing-produkt-cover;allesmarketing-header-grafik;allesmarketing-logo;allesmarketing-freebie-cover;,10.00,20.00,Thu Feb 19 2015 15:35:49 GMT+0100 (CET),Wed Jul 22 2015 05:32:52 GMT+0200 (CEST),PA,PM,,Thu Jul 16 2015 06:59:35 GMT+0200 (CEST),private,
JEDkaTZ9EWd5RA7k3,jakob.hager@hotmail.com,Jakob,Hager,de,general;research;transcription;translation;proofreading;writing;wordpress;photo-editing;video-creation;search-engine-optimization;search-engine-marketing;social-media-marketing;email-marketing;customer-support;telesales;marketing-copy;ebook-creationg;ebook-cover-creation;project-management;allesmarketing-produkt-cover;allesmarketing-header-grafik;allesmarketing-logo;niche-analysis;allesmarketing-freebie-cover;banner-set;html-css;ppt;,10.00,20.00,Thu Jan 08 2015 16:51:07 GMT+0100 (CET),Thu Aug 20 2015 15:08:34 GMT+0200 (CEST),PA,PM,Moderator,Mon Aug 17 2015 12:20:35 GMT+0200 (CEST),private,
LfdCzunMGZmwMzabi,lisa.bachmann88@googlemail.com,Lisa ,Bachmann,de,,0,0,Wed Jul 29 2015 12:08:54 GMT+0200 (CEST),Thu Aug 20 2015 11:04:03 GMT+0200 (CEST), , ,,,private,
MsjK2RfP9eFQkPn6B,mario.esletzbichler@gmail.com,Mario,Esletzbichler,de,,0,0,Thu Aug 06 2015 16:21:12 GMT+0200 (CEST),Fri Aug 21 2015 09:25:51 GMT+0200 (CEST), , ,,Fri Aug 07 2015 21:21:13 GMT+0200 (CEST),private,
DS2bznuoRXKJEQMBk,d.behr-dietz@t-online.de,Dunja,Behr-Dietz,de,general;transcription;,10.00,15.00,Wed May 27 2015 16:36:27 GMT+0200 (CEST),Thu Aug 20 2015 19:14:01 GMT+0200 (CEST), , ,,Sat Aug 15 2015 16:20:19 GMT+0200 (CEST),private,
FaLfrhxMnn6FF3uaR,kristina.k.petrova@gmail.com,Kristina ,Petrova,en,,0,0,Sun Apr 05 2015 12:51:49 GMT+0200 (CEST),Sun Apr 05 2015 12:52:38 GMT+0200 (CEST), , ,,,private,
HDnGDNBRwHEnMeuhw,sophiereincke86@gmail.com,Sophie,Reincke,de,general;transcription;translation;,10.00,12.00,Mon Mar 30 2015 19:41:20 GMT+0200 (CEST),Mon Aug 17 2015 18:12:23 GMT+0200 (CEST), , ,,Sun Aug 02 2015 20:04:40 GMT+0200 (CEST),private,
JKcdEfyLsNrZnaEze,davidhaider111@gmail.com,David,Haider,de,general;research;transcription;writing;video-creation;,10.00,20.00,Tue Apr 14 2015 15:22:15 GMT+0200 (CEST),Thu Aug 13 2015 10:34:17 GMT+0200 (CEST), , ,,Thu Apr 23 2015 11:51:02 GMT+0200 (CEST),corporate,Ing. Haider,Österreich,Wallern/Trattnach,4702,Gartenstraße 5,ATU63818738,
MHNBaiuHrbcNYRye4,carlavollert@googlemail.com,Carla,Vollert,de,,0,0,Tue Jun 30 2015 14:03:11 GMT+0200 (CEST),Fri Jul 03 2015 14:14:19 GMT+0200 (CEST), , ,,undefined,private,
Mz2heYecHW2y8cE6S,irina.niesen@freenet.de,Irina Niesen,Niesen,de,,0,0,Thu Jun 04 2015 11:10:20 GMT+0200 (CEST),Tue Jun 30 2015 20:41:25 GMT+0200 (CEST), , ,,Wed Jun 10 2015 10:37:26 GMT+0200 (CEST),private,
PPxwBuJJX5AFKwqXT,olena.ishchenko17@gmail.com,Olena,Uryadova,ru,general;research;,8.00,15.00,Fri Jun 05 2015 13:34:44 GMT+0200 (CEST),Thu Jul 23 2015 19:45:35 GMT+0200 (CEST), , ,,,private,
R9JuptqtNovzzLZZ5,clarissagwapa@yahoo.com,Maria Clarissa,de la Cruz,en,transcription;,8.50,15.00,Tue Jun 02 2015 15:36:05 GMT+0200 (CEST),Fri Aug 21 2015 05:40:32 GMT+0200 (CEST), , ,,Sun Jul 26 2015 15:36:16 GMT+0200 (CEST),private,
SjzzkcPrQqim8aAAT,a-galaburda@gmx.de,Galaburda,Aleksej,de,wordpress;project-management;,10.00,20.00,Mon May 11 2015 18:33:23 GMT+0200 (CEST),Thu Aug 13 2015 23:09:54 GMT+0200 (CEST), ,PM,,Thu Jul 02 2015 19:16:05 GMT+0200 (CEST),private,
WnumfyBS5LAS34oc2,info@tunc-webdesign.com,Tayfun,Tunc,de,,0,0,Fri May 22 2015 16:47:52 GMT+0200 (CEST),Fri May 22 2015 17:07:13 GMT+0200 (CEST), , ,,,private,
XfiFNJaToEvRstmHw,constanzewagner@rocketmail.com,Constanze,Wagner,de,transcription;,10.00,20.00,Thu Apr 02 2015 12:39:09 GMT+0200 (CEST),Sat Aug 15 2015 15:55:00 GMT+0200 (CEST), , ,,Thu Apr 16 2015 05:23:26 GMT+0200 (CEST),private,
ZnL7EGBY8PPkTNZJG,karine_muller@yahoo.fr,Muller,Karine,de,general;research;transcription;translation;proofreading;customer-support;,10.00,10.00,Mon Mar 23 2015 07:56:14 GMT+0100 (CET),Mon Apr 27 2015 13:19:36 GMT+0200 (CEST), , ,,,private,
bKCxmy3zGzeb2QTLg,mdomscht@googlemail.com,Marion,Domscheit,de,transcription;proofreading;,0,0,Wed May 27 2015 12:30:44 GMT+0200 (CEST),Fri Aug 21 2015 10:13:45 GMT+0200 (CEST), , ,,Thu Aug 06 2015 17:19:24 GMT+0200 (CEST),private,
cMkdbZXYsEyMEG4fg,seo@tractivetours.at,Michael,Gartner,de,general;translation;writing;search-engine-optimization;search-engine-marketing;social-media-marketing;email-marketing;marketing-copy;ebook-creationg;ebook-cover-creation;allesmarketing-produkt-cover;allesmarketing-header-grafik;allesmarketing-logo;niche-analysis;allesmarketing-freebie-cover;banner-set;html-css;,10.00,20.00,Wed Jun 17 2015 11:51:03 GMT+0200 (CEST),Fri Aug 14 2015 09:54:40 GMT+0200 (CEST), , ,,Wed Jul 22 2015 10:04:21 GMT+0200 (CEST),corporate,Tractive Tours e.U.,Österreich,Wien,1080,Wien,ATU69194007,
dWqb73yZiKfPR2Z8b,djeradiyad@gmail.com,Iyad,Djerad,de,general;research;transcription;translation;telesales;,7.22,12.00,Thu Jan 29 2015 14:25:30 GMT+0100 (CET),Thu Aug 20 2015 10:10:02 GMT+0200 (CEST),PA, ,,Sun Aug 02 2015 20:47:10 GMT+0200 (CEST),corporate,Hemera sarl,Tunesien,Tunis/Sousse,1000/4000,Avenue Victor Hugo /Zrouda Ap.13,null,
fE9wgWxvvBAzjbc6L,andrea@taskwunder.com,Maria,Mustermann,de,general;research;transcription;translation;proofreading;writing;wordpress;photo-editing;video-creation;search-engine-optimization;search-engine-marketing;social-media-marketing;email-marketing;customer-support;telesales;marketing-copy;ebook-creationg;ebook-cover-creation;project-management;,10.00,15.00,Wed May 20 2015 08:50:18 GMT+0200 (CEST),Thu Jul 30 2015 19:42:07 GMT+0200 (CEST), , ,,Wed Jul 15 2015 10:13:13 GMT+0200 (CEST),private,
h2BANHiZB66Hri6zq,socialmediahilfe2.0@gmail.com,Melanie,Hafner,de,,0,0,Mon Jun 29 2015 15:52:12 GMT+0200 (CEST),Wed Jul 22 2015 10:43:13 GMT+0200 (CEST), , ,,,private,
i5BnNFQNeSeCnmaCY,alexander@aurov.com,Alexander,Urov,ru,general;wordpress;,0,0,Tue Apr 21 2015 19:51:25 GMT+0200 (CEST),Tue Apr 21 2015 19:51:56 GMT+0200 (CEST), , ,,,private,
kAWupwwjo2o78iRHs,apanteliat@webiprog.de,Aleksandr,Panteliat ,de,photo-editing;ebook-cover-creation;allesmarketing-produkt-cover;webdesign;,10.00,20.00,Thu Jul 23 2015 16:39:13 GMT+0200 (CEST),Fri Aug 14 2015 13:47:05 GMT+0200 (CEST), , ,,undefined,corporate,WebiProg ,UK,Pontefract,Yorkshire WF8 3AE,23 Beech Crescent,null,
kvPMFbK4Yv9HaPaGF,flowngrow@gmx.de,Sabine C.,Dreßler,de,general;research;transcription;translation;proofreading;writing;marketing-copy;,10,20.00,Fri Jan 16 2015 16:23:34 GMT+0100 (CET),Fri Aug 21 2015 10:09:27 GMT+0200 (CEST),PA, ,,Thu Aug 20 2015 18:47:50 GMT+0200 (CEST),private,
nqdt3HNDaFbp7FSfF,kaelberer.uwe@googlemail.com,Uwe,Kälberer,de,general;research;transcription;proofreading;writing;,10.00,20.00,Wed Apr 08 2015 22:20:56 GMT+0200 (CEST),Mon Aug 03 2015 08:18:03 GMT+0200 (CEST), , ,,Wed Jul 22 2015 19:00:34 GMT+0200 (CEST),private,
otDtyShw7HWiDr2fJ,samira.fredj@gmail.com,Samira,Jaouadi,de,general;transcription;,10.00,12.00,Thu May 14 2015 19:13:32 GMT+0200 (CEST),Mon Aug 17 2015 13:54:23 GMT+0200 (CEST), , ,,Wed Jun 03 2015 17:16:16 GMT+0200 (CEST),private,
pzA8BKxerqwBz6hfA,varga.ildiko30@gmail.com,Ildiko,Varga,de,,0,0,Fri Jul 31 2015 15:56:35 GMT+0200 (CEST),Fri Jul 31 2015 15:57:26 GMT+0200 (CEST), , ,,,private,
re7EHr62f3NHwpc9D,kontakt@st-teleoffice.de,Sonja,Trapp,de,,9.00,15.00,Tue Jun 16 2015 09:59:00 GMT+0200 (CEST),Thu Aug 20 2015 21:52:28 GMT+0200 (CEST), , ,,Fri Jul 17 2015 11:46:00 GMT+0200 (CEST),corporate,
uR5KvJm2AgTTgkJhB,b.dinges88@gmx.de,Birk,Dinges,de,general;photo-editing;ebook-cover-creation;allesmarketing-produkt-cover;allesmarketing-header-grafik;allesmarketing-logo;allesmarketing-freebie-cover;banner-set;,10.00,20.00,Tue Jul 28 2015 15:48:34 GMT+0200 (CEST),Fri Aug 14 2015 22:56:45 GMT+0200 (CEST), , ,,Tue Aug 04 2015 13:27:46 GMT+0200 (CEST),private,
wBdNuHomWgczMQgth,panaleo@gmx.de,Pana,Leontiadu,null,,0,0,Wed Jul 29 2015 16:22:55 GMT+0200 (CEST),Wed Jul 29 2015 19:06:48 GMT+0200 (CEST), , ,,,private,
wxvWs4N2bLBqdzDpc,richard.swanson.480@gmail.com,Richard,Swanson,null,,0,0,Tue Aug 11 2015 21:56:51 GMT+0200 (CEST),Fri Aug 21 2015 01:09:15 GMT+0200 (CEST), , ,,,private,
yYcp2pcTscoRxcbAj,alex.rath@web.de,Alex,Rath,de,general;photo-editing;ebook-cover-creation;allesmarketing-produkt-cover;allesmarketing-header-grafik;allesmarketing-logo;allesmarketing-freebie-cover;banner-set;,10.00,20.00,Sun Mar 08 2015 19:39:43 GMT+0100 (CET),Mon May 11 2015 13:00:45 GMT+0200 (CEST), , ,,Fri Apr 03 2015 22:03:54 GMT+0200 (CEST),private,
PCMQhhygEzYfAeeK8,petra.richli@gmail.com,Petra,Richli,en,general;wordpress;photo-editing;ebook-cover-creation;allesmarketing-produkt-cover;allesmarketing-header-grafik;allesmarketing-logo;allesmarketing-freebie-cover;,10.00,20.00,Thu Feb 19 2015 08:31:04 GMT+0100 (CET),Sun Aug 09 2015 20:07:22 GMT+0200 (CEST), , ,,Sat May 30 2015 22:09:36 GMT+0200 (CEST),private,
QnPBtCNeH5hM9p9Db,steffi_graef@web.de,Steffi,Gräf,de,,0,0,Sat Jun 06 2015 09:13:56 GMT+0200 (CEST),Wed Jul 01 2015 16:07:11 GMT+0200 (CEST), , ,,Wed Jun 17 2015 14:15:39 GMT+0200 (CEST),private,
SGqv5YqHqgCGFNSpk,regina.roettgen@gmail.com,Regina,Röttgen,tr,general;research;transcription;translation;social media;writing;proofreading;hochdeutsch;,10,10.00,Tue Jan 20 2015 13:20:32 GMT+0100 (CET),Mon Apr 13 2015 13:24:24 GMT+0200 (CEST), , ,,,private,
WNJtSNbn7REBEdehS,b.scharfmueller@gmail.com,Beate,Scharfmüller,de,,0,0,Mon Apr 13 2015 17:24:41 GMT+0200 (CEST),Mon Apr 13 2015 19:10:11 GMT+0200 (CEST), , ,,,private,
XRHorNWw2THhdmcyP,info@hannasilbermayr.com,Hanna,Silbermayr,de,,0,0,Wed Aug 05 2015 23:00:44 GMT+0200 (CEST),Wed Aug 05 2015 23:01:06 GMT+0200 (CEST), , ,,undefined,private,
Z6vNePcWhMZgtvqYm,bueroservice@gmx.at,Ursula,Kojeder,de,,10.00,15.00,Mon May 18 2015 13:39:45 GMT+0200 (CEST),Wed Aug 19 2015 11:24:46 GMT+0200 (CEST), , ,,Tue Jun 23 2015 19:42:57 GMT+0200 (CEST),private,
bGWkDBk5fWZYDTaBJ,anja.riemer-grobe@gmx.de,Anja,Riemer-Grobe,de,,0,0,Thu Jul 30 2015 10:37:06 GMT+0200 (CEST),Thu Jul 30 2015 10:38:51 GMT+0200 (CEST), , ,,,private,
cKFutPQg5zetqBnWp,koller-nuernberg@t-online.de,Anita,Koller,de,,0,0,Fri Jun 05 2015 13:50:12 GMT+0200 (CEST),Tue Jun 09 2015 20:34:19 GMT+0200 (CEST), , ,,,private,
dGbcW6ZcdpMPNuQqq,jansen.justin@gmx.net,Justin,Jansen,de,,0,0,Wed Jun 10 2015 11:16:52 GMT+0200 (CEST),Wed Jun 10 2015 11:17:42 GMT+0200 (CEST), , ,,,private,
f78z9MaZoMNyDQdcd,ashleemikay@yahoo.com,Diane Cecilia ,de la Cruz,en,,0,0,Thu Jul 02 2015 04:42:09 GMT+0200 (CEST),Thu Jul 16 2015 10:05:43 GMT+0200 (CEST), , ,,Thu Jul 02 2015 15:11:00 GMT+0200 (CEST),private,
grWWEHRP757yvK9cd,test@taskwunder.com,Test,Benutzer,de,general;research;transcription;translation;proofreading;writing;wordpress;photo-editing;video-creation;search-engine-optimization;search-engine-marketing;email-marketing;customer-support;telesales;marketing-copy;ebook-creationg;ebook-cover-creation;project-management;,10.00,0,Wed Apr 01 2015 10:42:29 GMT+0200 (CEST),Wed Apr 01 2015 10:42:30 GMT+0200 (CEST), , ,,undefined,private,
hwin3iLmnqp2myD2Z,timo@taskwunder.com,Timo,Becker,de,general;research;social-media-marketing;email-marketing;customer-support;,10.00,20.00,Tue Mar 10 2015 18:34:59 GMT+0100 (CET),Fri Jun 26 2015 10:51:13 GMT+0200 (CEST), ,PM,,Mon May 11 2015 16:48:50 GMT+0200 (CEST),private,
k2o89cRwWxC7fqMdG,digitalverlag@gmail.com,Marco,Mertins,undefined,ebook-cover-creation;,10.00,20.00,Tue Feb 17 2015 12:43:54 GMT+0100 (CET),, , ,,,private,
kezJY4TZehjmPwe6q,hanka92@yahoo.de,Ann-Katrin,Hartmann,de,,0,0,Mon Jun 08 2015 09:53:06 GMT+0200 (CEST),Thu Jul 23 2015 22:11:44 GMT+0200 (CEST), , ,,Tue Jun 09 2015 09:37:27 GMT+0200 (CEST),private,
nis8ykideRPnTtp49,seo-texter@outlook.de,Nick,Belane,undefined,transcription;,7.00,7.00,Sun Feb 22 2015 15:42:15 GMT+0100 (CET),, , ,,,private,
oXj6Lac4wxvg9umwf,bettina.wirtler@gmx.at,Bettina,Wirtler,de,,0,0,Fri Apr 03 2015 13:50:16 GMT+0200 (CEST),Wed Apr 22 2015 13:00:22 GMT+0200 (CEST), , ,,,private,
ps656Yjq8G3obM4yN,mona67@hotmail.com,Astrid,Schneider,de,,0,0,Thu Jun 04 2015 13:21:41 GMT+0200 (CEST),Sat Jun 06 2015 11:22:47 GMT+0200 (CEST), , ,,Sat Jun 06 2015 09:48:09 GMT+0200 (CEST),private,
rAoE9qxy9ueTnTpox,sarahfromgeorgia@gmail.com,Sarah,Mason,en,transcription;proofreading;,9.40,9.40,Thu Feb 26 2015 16:56:30 GMT+0100 (CET),Mon Jun 22 2015 17:01:30 GMT+0200 (CEST), , ,,Sat May 30 2015 19:19:59 GMT+0200 (CEST),private,
u2joLJa9At8iWqNoE,antonia@virtuelleassistenten.eu,Antonia,Zurfluh,de,general;research;,5.00,5.00,Wed Jan 28 2015 14:47:10 GMT+0100 (CET),Tue Apr 28 2015 12:09:10 GMT+0200 (CEST), , ,,,private,
w7krtSKag5E9qp4uT,sylvia.mail@t-online.de,Sylvia,Schmidt,de,general;research;,10.00,15.00,Wed May 20 2015 11:11:43 GMT+0200 (CEST),Thu Aug 20 2015 21:04:18 GMT+0200 (CEST), , ,,Wed Aug 12 2015 14:56:31 GMT+0200 (CEST),private,
wsSMpoqMgCwWoxmb5,heidepower@gmail.com,Torsten,Glasbrenner,de,,0,0,Fri Jul 31 2015 21:51:26 GMT+0200 (CEST),Mon Aug 03 2015 08:51:15 GMT+0200 (CEST), , ,,,private,
xoMEJDRXBvpZXW9Qv,scholz@fspot-design.de,Sebastian,Scholz,de,general;research;photo-editing;ebook-cover-creation;allesmarketing-produkt-cover;allesmarketing-header-grafik;allesmarketing-logo;allesmarketing-freebie-cover;banner-set;webdesign;,10.00,20.00,Tue Apr 28 2015 13:58:43 GMT+0200 (CEST),Fri Aug 21 2015 13:37:15 GMT+0200 (CEST), , ,,Thu Jun 11 2015 20:02:42 GMT+0200 (CEST),private,
yqaZKPTafYBofuCNW,bri@gmx.net,Beat,Richli,de,wordpress;search-engine-optimization;project-management;,10.00,20.00,Wed Feb 18 2015 23:45:46 GMT+0100 (CET),Fri Aug 07 2015 22:03:11 GMT+0200 (CEST), , ,,Tue Jul 07 2015 19:08:29 GMT+0200 (CEST),private,
tpiY7pBpnQe5PDhjQ,deliboyrazandrea@gmail.com,Andrea,Deliboyraz,de,general;research;transcription;translation;proofreading;writing;photo-editing;video-creation;search-engine-optimization;search-engine-marketing;social-media-marketing;email-marketing;customer-support;telesales;marketing-copy;ebook-creationg;ebook-cover-creation;project-management;allesmarketing-produkt-cover;allesmarketing-header-grafik;allesmarketing-logo;niche-analysis;allesmarketing-freebie-cover;banner-set;webdesign;,10.00,13.00,Thu Feb 19 2015 12:52:57 GMT+0100 (CET),Fri Aug 21 2015 11:46:39 GMT+0200 (CEST),PA, ,Moderator,Wed Aug 19 2015 19:00:41 GMT+0200 (CEST),private,
vggEGDSRcmCBCw58z,amarind@icloud.com,Amarind,Tan,en,transcription;,0,0,Fri Jun 19 2015 16:56:14 GMT+0200 (CEST),Wed Aug 19 2015 17:40:29 GMT+0200 (CEST), , ,,,private,
wfivFg7NgBgn7Bupp,lhankin23@gmail.com,Leigh,Hankin,en,research;proofreading;writing;marketing-copy;,10.00,20.00,Tue Mar 31 2015 17:20:01 GMT+0200 (CEST),Mon Jun 22 2015 19:34:43 GMT+0200 (CEST), , ,,Wed Apr 22 2015 17:00:10 GMT+0200 (CEST),private,
xhunCTQgQmS72YEi9,danistanic@gmail.com,Danijel,Stanic,en,general;research;transcription;translation;writing;customer-support;,6.5,6.50,Sat Jan 24 2015 15:05:14 GMT+0100 (CET),Thu Aug 20 2015 13:28:15 GMT+0200 (CEST),PA, ,,Thu Aug 20 2015 13:29:18 GMT+0200 (CEST),private,
ym4BAomsFEgcFSDdT,xalexauge@gmail.com,alexander,auge,de,,0,0,Sun Jun 07 2015 09:22:01 GMT+0200 (CEST),Sun Jul 12 2015 15:20:58 GMT+0200 (CEST), , ,,Fri Jul 03 2015 09:34:37 GMT+0200 (CEST),private,
